999
dxfrw 0.6.3
  0
SECTION
  2
HEADER
  9
$ACADVER
  1
AC1021
  9
$DWGCODEPAGE
  3
ANSI_1252
  9
$INSBASE
 10
0
 20
0
 30
0
  9
$EXTMIN
 10
-1.500000000000001
 20
-318
 30
0
  9
$EXTMAX
 10
269.4180820000003
 20
257.745236
 30
0
  9
$LIMMIN
 10
0
 20
0
  9
$LIMMAX
 10
420
 20
297
  9
$ORTHOMODE
 70
    0
  9
$REGENMODE
 70
    1
  9
$FILLMODE
 70
    1
  9
$QTEXTMODE
 70
    0
  9
$MIRRTEXT
 70
    0
  9
$LTSCALE
 40
1
  9
$ATTMODE
 70
    0
  9
$TEXTSIZE
 40
2.5
  9
$TRACEWID
 40
15.68
  9
$TEXTSTYLE
  7
STANDARD
  9
$CLAYER
  8
OuterCuts
  9
$CELTYPE
  6
BYLAYER
  9
$CECOLOR
 62
  256
  9
$CELTSCALE
 40
1
  9
$DISPSILH
 70
    0
  9
$DIMSCALE
 40
1
  9
$DIMASZ
 40
2.5
  9
$DIMEXO
 40
0.625
  9
$DIMDLI
 40
3.75
  9
$DIMRND
 40
0
  9
$DIMDLE
 40
0
  9
$DIMEXE
 40
1.25
  9
$DIMTP
 40
0
  9
$DIMTM
 40
0
  9
$DIMTXT
 40
2.5
  9
$DIMCEN
 40
2.5
  9
$DIMTSZ
 40
0
  9
$DIMTOL
 70
    0
  9
$DIMLIM
 70
    0
  9
$DIMTIH
 70
    0
  9
$DIMTOH
 70
    0
  9
$DIMSE1
 70
    0
  9
$DIMSE2
 70
    0
  9
$DIMTAD
 70
    1
  9
$DIMZIN
 70
    8
  9
$DIMBLK
  1

  9
$DIMASO
 70
    1
  9
$DIMSHO
 70
    1
  9
$DIMPOST
  1

  9
$DIMAPOST
  1

  9
$DIMALT
 70
    0
  9
$DIMALTD
 70
    3
  9
$DIMALTF
 40
0.03937
  9
$DIMLFAC
 40
1
  9
$DIMTOFL
 70
    1
  9
$DIMTVP
 40
0
  9
$DIMTIX
 70
    0
  9
$DIMSOXD
 70
    0
  9
$DIMSAH
 70
    0
  9
$DIMBLK1
  1

  9
$DIMBLK2
  1

  9
$DIMSTYLE
  2
Standard
  9
$DIMCLRD
 70
    0
  9
$DIMCLRE
 70
    0
  9
$DIMCLRT
 70
    0
  9
$DIMTFAC
 40
1
  9
$DIMGAP
 40
0.625
  9
$DIMJUST
 70
    0
  9
$DIMSD1
 70
    0
  9
$DIMSD2
 70
    0
  9
$DIMTOLJ
 70
    0
  9
$DIMTZIN
 70
    8
  9
$DIMALTZ
 70
    0
  9
$DIMALTTZ
 70
    0
  9
$DIMUPT
 70
    0
  9
$DIMDEC
 70
    2
  9
$DIMTDEC
 70
    2
  9
$DIMALTU
 70
    2
  9
$DIMALTTD
 70
    3
  9
$DIMTXSTY
  7
STANDARD
  9
$DIMAUNIT
 70
    0
  9
$DIMADEC
 70
    0
  9
$DIMALTRND
 40
0
  9
$DIMAZIN
 70
    0
  9
$DIMDSEP
 70
   44
  9
$DIMATFIT
 70
    3
  9
$DIMFRAC
 70
    0
  9
$DIMLDRBLK
  1
STANDARD
  9
$DIMLUNIT
 70
    2
  9
$DIMLWD
 70
   -2
  9
$DIMLWE
 70
   -2
  9
$DIMTMOVE
 70
    0
  9
$DIMFXL
 40
1
  9
$DIMFXLON
 70
    0
  9
$DIMJOGANG
 40
0.7854
  9
$DIMTFILL
 70
    0
  9
$DIMTFILLCLR
 70
    0
  9
$DIMARCSYM
 70
    0
  9
$DIMLTYPE
  6

  9
$DIMLTEX1
  6

  9
$DIMLTEX2
  6

  9
$LUNITS
 70
    2
  9
$LUPREC
 70
    4
  9
$SKETCHINC
 40
1
  9
$FILLETRAD
 40
0
  9
$AUNITS
 70
    0
  9
$AUPREC
 70
    2
  9
$MENU
  1
.
  9
$ELEVATION
 40
0
  9
$PELEVATION
 40
0
  9
$THICKNESS
 40
0
  9
$LIMCHECK
 70
    0
  9
$CHAMFERA
 40
0
  9
$CHAMFERB
 40
0
  9
$CHAMFERC
 40
0
  9
$CHAMFERD
 40
0
  9
$SKPOLY
 70
    0
  9
$USRTIMER
 70
    1
  9
$ANGBASE
 50
0
  9
$ANGDIR
 70
    0
  9
$PDMODE
 70
   34
  9
$PDSIZE
 40
0
  9
$PLINEWID
 40
0
  9
$SPLFRAME
 70
    0
  9
$SPLINETYPE
 70
    2
  9
$SPLINESEGS
 70
    8
  9
$HANDSEED
  5
20000
  9
$SURFTAB1
 70
    6
  9
$SURFTAB2
 70
    6
  9
$SURFTYPE
 70
    6
  9
$SURFU
 70
    6
  9
$SURFV
 70
    6
  9
$UCSBASE
  2

  9
$UCSNAME
  2

  9
$UCSORG
 10
0
 20
0
 30
0
  9
$UCSXDIR
 10
1
 20
0
 30
0
  9
$UCSYDIR
 10
0
 20
1
 30
0
  9
$UCSORTHOREF
  2

  9
$UCSORTHOVIEW
 70
    0
  9
$UCSORGTOP
 10
0
 20
0
 30
0
  9
$UCSORGBOTTOM
 10
0
 20
0
 30
0
  9
$UCSORGLEFT
 10
0
 20
0
 30
0
  9
$UCSORGRIGHT
 10
0
 20
0
 30
0
  9
$UCSORGFRONT
 10
0
 20
0
 30
0
  9
$UCSORGBACK
 10
0
 20
0
 30
0
  9
$PUCSBASE
  2

  9
$PUCSNAME
  2

  9
$PUCSORG
 10
0
 20
0
 30
0
  9
$PUCSXDIR
 10
1
 20
0
 30
0
  9
$PUCSYDIR
 10
0
 20
1
 30
0
  9
$PUCSORTHOREF
  2

  9
$PUCSORTHOVIEW
 70
    0
  9
$PUCSORGTOP
 10
0
 20
0
 30
0
  9
$PUCSORGBOTTOM
 10
0
 20
0
 30
0
  9
$PUCSORGLEFT
 10
0
 20
0
 30
0
  9
$PUCSORGRIGHT
 10
0
 20
0
 30
0
  9
$PUCSORGFRONT
 10
0
 20
0
 30
0
  9
$PUCSORGBACK
 10
0
 20
0
 30
0
  9
$USERI1
 70
    0
  9
$USERI2
 70
    0
  9
$USERI3
 70
    0
  9
$USERI4
 70
    0
  9
$USERI5
 70
    0
  9
$USERR1
 40
0
  9
$USERR2
 40
0
  9
$USERR3
 40
0
  9
$USERR4
 40
0
  9
$USERR5
 40
0
  9
$WORLDVIEW
 70
    1
  9
$SHADEDGE
 70
    3
  9
$SHADEDIF
 70
   70
  9
$TILEMODE
 70
    1
  9
$MAXACTVP
 70
   64
  9
$PINSBASE
 10
0
 20
0
 30
0
  9
$PLIMCHECK
 70
    0
  9
$PEXTMIN
 10
0
 20
0
 30
0
  9
$PEXTMAX
 10
0
 20
0
 30
0
  9
$GRIDMODE
 70
    1
  9
$SNAPSTYLE
 70
    0
  9
$PLIMMIN
 10
0
 20
0
  9
$PLIMMAX
 10
420
 20
297
  9
$UNITMODE
 70
    0
  9
$VISRETAIN
 70
    1
  9
$PLINEGEN
 70
    0
  9
$PSLTSCALE
 70
    1
  9
$TREEDEPTH
 70
 3020
  9
$CMLSTYLE
  2
Standard
  9
$CMLJUST
 70
    0
  9
$CMLSCALE
 40
20
  9
$PROXYGRAPHICS
 70
    1
  9
$MEASUREMENT
 70
    1
  9
$CELWEIGHT
370
   -1
  9
$ENDCAPS
280
    0
  9
$JOINSTYLE
280
    0
  9
$LWDISPLAY
290
    0
  9
$INSUNITS
 70
    4
  9
$HYPERLINKBASE
  1

  9
$STYLESHEET
  1

  9
$XEDIT
290
    1
  9
$CEPSNTYPE
380
    0
  9
$PSTYLEMODE
290
    1
  9
$EXTNAMES
290
    1
  9
$PSVPSCALE
 40
1
  9
$OLESTARTUP
290
    0
  9
$SORTENTS
280
  127
  9
$INDEXCTL
280
    0
  9
$HIDETEXT
280
    1
  9
$XCLIPFRAME
290
    0
  9
$HALOGAP
280
    0
  9
$OBSCOLOR
 70
  257
  9
$OBSLTYPE
280
    0
  9
$INTERSECTIONDISPLAY
280
    0
  9
$INTERSECTIONCOLOR
 70
  257
  9
$DIMASSOC
280
    1
  9
$PROJECTNAME
  1

  9
$CAMERADISPLAY
290
    0
  9
$LENSLENGTH
 40
50
  9
$CAMERAHEIGHT
 40
0
  9
$STEPSPERSEC
 40
2
  9
$STEPSIZE
 40
50
  9
$3DDWFPREC
 40
2
  9
$PSOLWIDTH
 40
5
  9
$PSOLHEIGHT
 40
80
  9
$LOFTANG1
 40
1.570796326794897
  9
$LOFTANG2
 40
1.570796326794897
  9
$LOFTMAG1
 40
0
  9
$LOFTMAG2
 40
0
  9
$LOFTPARAM
 70
    7
  9
$LOFTNORMALS
280
    1
  9
$LATITUDE
 40
1
  9
$LONGITUDE
 40
1
  9
$NORTHDIRECTION
 40
0
  9
$TIMEZONE
 70
-8000
  9
$LIGHTGLYPHDISPLAY
280
    1
  9
$TILEMODELIGHTSYNCH
280
    1
  9
$SOLIDHIST
280
    1
  9
$SHOWHIST
280
    1
  9
$DWFFRAME
280
    2
  9
$DGNFRAME
280
    0
  9
$REALWORLDSCALE
290
    1
  9
$INTERFERECOLOR
 62
    1
  9
$CSHADOW
280
    0
  9
$SHADOWPLANELOCATION
 40
0
  0
ENDSEC
  0
SECTION
  2
CLASSES
  0
ENDSEC
  0
SECTION
  2
TABLES
  0
TABLE
  2
VPORT
  5
8
330
0
100
AcDbSymbolTable
 70
    1
  0
VPORT
  5
31
330
2
100
AcDbSymbolTableRecord
100
AcDbViewportTableRecord
  2
*ACTIVE
 70
    0
 10
0
 20
0
 11
1
 21
1
 12
522.6128896927499
 22
370.021104787808
 13
0
 23
0
 14
10
 24
10
 15
10
 25
10
 16
0
 26
0
 36
1
 17
0
 27
0
 37
0
 40
950.2052539868181
 41
1.734117647058824
 42
50
 43
0
 44
0
 50
0
 51
0
 71
    0
 72
  100
 73
    1
 74
    3
 75
    0
 76
    1
 77
    0
 78
    0
281
    0
 65
    1
110
0
120
0
130
0
111
1
121
0
131
0
112
0
122
1
132
0
 79
    0
146
0
348
10020
 60
    7
 61
    5
292
1
282
    1
141
0
142
0
 63
  250
421
3358443
  0
ENDTAB
  0
TABLE
  2
LTYPE
  5
5
330
0
100
AcDbSymbolTable
 70
    4
  0
LTYPE
  5
14
330
5
100
AcDbSymbolTableRecord
100
AcDbLinetypeTableRecord
  2
ByBlock
 70
    0
  3

 72
   65
 73
    0
 40
0
  0
LTYPE
  5
15
330
5
100
AcDbSymbolTableRecord
100
AcDbLinetypeTableRecord
  2
ByLayer
 70
    0
  3

 72
   65
 73
    0
 40
0
  0
LTYPE
  5
16
330
5
100
AcDbSymbolTableRecord
100
AcDbLinetypeTableRecord
  2
Continuous
 70
    0
  3
Solid line
 72
   65
 73
    0
 40
0
  0
LTYPE
  5
32
330
5
100
AcDbSymbolTableRecord
100
AcDbLinetypeTableRecord
  2
DOT
 70
    0
  3
Dot . . . . . . . . . . . . . . . . . . . . . .
 72
   65
 73
    2
 40
6.35
 49
0
 74
    0
 49
-6.35
 74
    0
  0
LTYPE
  5
33
330
5
100
AcDbSymbolTableRecord
100
AcDbLinetypeTableRecord
  2
DOTTINY
 70
    0
  3
Dot (.15x) .....................................
 72
   65
 73
    2
 40
0.9525
 49
0
 74
    0
 49
-0.9525
 74
    0
  0
LTYPE
  5
34
330
5
100
AcDbSymbolTableRecord
100
AcDbLinetypeTableRecord
  2
DOT2
 70
    0
  3
Dot (.5x) .....................................
 72
   65
 73
    2
 40
3.175
 49
0
 74
    0
 49
-3.175
 74
    0
  0
LTYPE
  5
35
330
5
100
AcDbSymbolTableRecord
100
AcDbLinetypeTableRecord
  2
DOTX2
 70
    0
  3
Dot (2x) .  .  .  .  .  .  .  .  .  .  .  .  .
 72
   65
 73
    2
 40
12.7
 49
0
 74
    0
 49
-12.7
 74
    0
  0
LTYPE
  5
36
330
5
100
AcDbSymbolTableRecord
100
AcDbLinetypeTableRecord
  2
DASHED
 70
    0
  3
Dashed _ _ _ _ _ _ _ _ _ _ _ _ _ _ _ _ _
 72
   65
 73
    2
 40
19.05
 49
12.7
 74
    0
 49
-6.35
 74
    0
  0
LTYPE
  5
37
330
5
100
AcDbSymbolTableRecord
100
AcDbLinetypeTableRecord
  2
DASHEDTINY
 70
    0
  3
Dashed (.15x) _ _ _ _ _ _ _ _ _ _ _ _ _ _ _ _ _
 72
   65
 73
    2
 40
2.8575
 49
1.905
 74
    0
 49
-0.9525
 74
    0
  0
LTYPE
  5
38
330
5
100
AcDbSymbolTableRecord
100
AcDbLinetypeTableRecord
  2
DASHED2
 70
    0
  3
Dashed (.5x) _ _ _ _ _ _ _ _ _ _ _ _ _ _ _ _ _
 72
   65
 73
    2
 40
9.524999999999999
 49
6.35
 74
    0
 49
-3.175
 74
    0
  0
LTYPE
  5
39
330
5
100
AcDbSymbolTableRecord
100
AcDbLinetypeTableRecord
  2
DASHEDX2
 70
    0
  3
Dashed (2x) ____  ____  ____  ____  ____  ___
 72
   65
 73
    2
 40
38.09999999999999
 49
25.4
 74
    0
 49
-12.7
 74
    0
  0
LTYPE
  5
3A
330
5
100
AcDbSymbolTableRecord
100
AcDbLinetypeTableRecord
  2
DASHDOT
 70
    0
  3
Dash dot __ . __ . __ . __ . __ . __ . __ . __
 72
   65
 73
    4
 40
25.4
 49
12.7
 74
    0
 49
-6.35
 74
    0
 49
0
 74
    0
 49
-6.35
 74
    0
  0
LTYPE
  5
3B
330
5
100
AcDbSymbolTableRecord
100
AcDbLinetypeTableRecord
  2
DASHDOTTINY
 70
    0
  3
Dash dot (.15x) _._._._._._._._._._._._._._._.
 72
   65
 73
    4
 40
3.81
 49
1.905
 74
    0
 49
-0.9525
 74
    0
 49
0
 74
    0
 49
-0.9525
 74
    0
  0
LTYPE
  5
3C
330
5
100
AcDbSymbolTableRecord
100
AcDbLinetypeTableRecord
  2
DASHDOT2
 70
    0
  3
Dash dot (.5x) _._._._._._._._._._._._._._._.
 72
   65
 73
    4
 40
12.7
 49
6.35
 74
    0
 49
-3.175
 74
    0
 49
0
 74
    0
 49
-3.175
 74
    0
  0
LTYPE
  5
3D
330
5
100
AcDbSymbolTableRecord
100
AcDbLinetypeTableRecord
  2
DASHDOTX2
 70
    0
  3
Dash dot (2x) ____  .  ____  .  ____  .  ___
 72
   65
 73
    4
 40
50.8
 49
25.4
 74
    0
 49
-12.7
 74
    0
 49
0
 74
    0
 49
-12.7
 74
    0
  0
LTYPE
  5
3E
330
5
100
AcDbSymbolTableRecord
100
AcDbLinetypeTableRecord
  2
DIVIDE
 70
    0
  3
Divide ____ . . ____ . . ____ . . ____ . . ____
 72
   65
 73
    6
 40
31.75
 49
12.7
 74
    0
 49
-6.35
 74
    0
 49
0
 74
    0
 49
-6.35
 74
    0
 49
0
 74
    0
 49
-6.35
 74
    0
  0
LTYPE
  5
3F
330
5
100
AcDbSymbolTableRecord
100
AcDbLinetypeTableRecord
  2
DIVIDETINY
 70
    0
  3
Divide (.15x) __..__..__..__..__..__..__..__.._
 72
   65
 73
    6
 40
4.7625
 49
1.905
 74
    0
 49
-0.9525
 74
    0
 49
0
 74
    0
 49
-0.9525
 74
    0
 49
0
 74
    0
 49
-0.9525
 74
    0
  0
LTYPE
  5
40
330
5
100
AcDbSymbolTableRecord
100
AcDbLinetypeTableRecord
  2
DIVIDE2
 70
    0
  3
Divide (.5x) __..__..__..__..__..__..__..__.._
 72
   65
 73
    6
 40
15.875
 49
6.35
 74
    0
 49
-3.175
 74
    0
 49
0
 74
    0
 49
-3.175
 74
    0
 49
0
 74
    0
 49
-3.175
 74
    0
  0
LTYPE
  5
41
330
5
100
AcDbSymbolTableRecord
100
AcDbLinetypeTableRecord
  2
DIVIDEX2
 70
    0
  3
Divide (2x) ________  .  .  ________  .  .  _
 72
   65
 73
    6
 40
63.5
 49
25.4
 74
    0
 49
-12.7
 74
    0
 49
0
 74
    0
 49
-12.7
 74
    0
 49
0
 74
    0
 49
-12.7
 74
    0
  0
LTYPE
  5
42
330
5
100
AcDbSymbolTableRecord
100
AcDbLinetypeTableRecord
  2
BORDER
 70
    0
  3
Border __ __ . __ __ . __ __ . __ __ . __ __ .
 72
   65
 73
    6
 40
44.45
 49
12.7
 74
    0
 49
-6.35
 74
    0
 49
12.7
 74
    0
 49
-6.35
 74
    0
 49
0
 74
    0
 49
-6.35
 74
    0
  0
LTYPE
  5
43
330
5
100
AcDbSymbolTableRecord
100
AcDbLinetypeTableRecord
  2
BORDERTINY
 70
    0
  3
Border (.15x) __.__.__.__.__.__.__.__.__.__.__.
 72
   65
 73
    6
 40
6.6675
 49
1.905
 74
    0
 49
-0.9525
 74
    0
 49
1.905
 74
    0
 49
-0.9525
 74
    0
 49
0
 74
    0
 49
-0.9525
 74
    0
  0
LTYPE
  5
44
330
5
100
AcDbSymbolTableRecord
100
AcDbLinetypeTableRecord
  2
BORDER2
 70
    0
  3
Border (.5x) __.__.__.__.__.__.__.__.__.__.__.
 72
   65
 73
    6
 40
22.225
 49
6.35
 74
    0
 49
-3.175
 74
    0
 49
6.35
 74
    0
 49
-3.175
 74
    0
 49
0
 74
    0
 49
-3.175
 74
    0
  0
LTYPE
  5
45
330
5
100
AcDbSymbolTableRecord
100
AcDbLinetypeTableRecord
  2
BORDERX2
 70
    0
  3
Border (2x) ____  ____  .  ____  ____  .  ___
 72
   65
 73
    6
 40
88.89999999999999
 49
25.4
 74
    0
 49
-12.7
 74
    0
 49
25.4
 74
    0
 49
-12.7
 74
    0
 49
0
 74
    0
 49
-12.7
 74
    0
  0
LTYPE
  5
46
330
5
100
AcDbSymbolTableRecord
100
AcDbLinetypeTableRecord
  2
CENTER
 70
    0
  3
Center ____ _ ____ _ ____ _ ____ _ ____ _ ____
 72
   65
 73
    4
 40
50.8
 49
31.75
 74
    0
 49
-6.35
 74
    0
 49
6.35
 74
    0
 49
-6.35
 74
    0
  0
LTYPE
  5
47
330
5
100
AcDbSymbolTableRecord
100
AcDbLinetypeTableRecord
  2
CENTERTINY
 70
    0
  3
Center (.15x) ___ _ ___ _ ___ _ ___ _ ___ _ ___
 72
   65
 73
    4
 40
7.619999999999999
 49
4.7625
 74
    0
 49
-0.9525
 74
    0
 49
0.9525
 74
    0
 49
-0.9525
 74
    0
  0
LTYPE
  5
48
330
5
100
AcDbSymbolTableRecord
100
AcDbLinetypeTableRecord
  2
CENTER2
 70
    0
  3
Center (.5x) ___ _ ___ _ ___ _ ___ _ ___ _ ___
 72
   65
 73
    4
 40
28.575
 49
19.05
 74
    0
 49
-3.175
 74
    0
 49
3.175
 74
    0
 49
-3.175
 74
    0
  0
LTYPE
  5
49
330
5
100
AcDbSymbolTableRecord
100
AcDbLinetypeTableRecord
  2
CENTERX2
 70
    0
  3
Center (2x) ________  __  ________  __  _____
 72
   65
 73
    4
 40
101.6
 49
63.5
 74
    0
 49
-12.7
 74
    0
 49
12.7
 74
    0
 49
-12.7
 74
    0
  0
ENDTAB
  0
TABLE
  2
LAYER
  5
2
330
0
100
AcDbSymbolTable
 70
    1
  0
LAYER
  5
10
330
2
100
AcDbSymbolTableRecord
100
AcDbLayerTableRecord
  2
0
 70
    1
 62
    7
  6
CONTINUOUS
370
   -3
390
F
  0
LAYER
  5
4A
330
2
100
AcDbSymbolTableRecord
100
AcDbLayerTableRecord
  2
Discard
 70
    1
 62
  253
420
10526884
  6
CONTINUOUS
370
    0
390
F
  0
LAYER
  5
4B
330
2
100
AcDbSymbolTableRecord
100
AcDbLayerTableRecord
  2
Guides
 70
    1
 62
    2
  6
CONTINUOUS
370
    0
390
F
1001
LibreCad
1070
    1
  0
LAYER
  5
4C
330
2
100
AcDbSymbolTableRecord
100
AcDbLayerTableRecord
  2
InnerCuts
 70
    0
 62
    4
  6
CONTINUOUS
370
    0
390
F
  0
LAYER
  5
4D
330
2
100
AcDbSymbolTableRecord
100
AcDbLayerTableRecord
  2
OuterCuts
 70
    0
 62
    6
  6
CONTINUOUS
370
    0
390
F
  0
LAYER
  5
4E
330
2
100
AcDbSymbolTableRecord
100
AcDbLayerTableRecord
  2
TopHook
 70
    0
 62
    5
  6
CONTINUOUS
370
    0
390
F
  0
LAYER
  5
4F
330
2
100
AcDbSymbolTableRecord
100
AcDbLayerTableRecord
  2
TopHookGuides
 70
    1
 62
    3
  6
CONTINUOUS
370
    0
390
F
1001
LibreCad
1070
    1
  0
LAYER
  5
50
330
2
100
AcDbSymbolTableRecord
100
AcDbLayerTableRecord
  2
measures
 70
    0
 62
    1
  6
CONTINUOUS
370
    0
390
F
  0
ENDTAB
  0
TABLE
  2
STYLE
  5
3
330
0
100
AcDbSymbolTable
 70
    3
  0
STYLE
  5
51
330
2
100
AcDbSymbolTableRecord
100
AcDbTextStyleTableRecord
  2
Standard
 70
    0
 40
0
 41
1
 50
0
 71
    0
 42
1
  3
txt
  4

  0
ENDTAB
  0
TABLE
  2
VIEW
  5
6
330
0
100
AcDbSymbolTable
 70
    0
  0
ENDTAB
  0
TABLE
  2
UCS
  5
7
330
0
100
AcDbSymbolTable
 70
    0
  0
ENDTAB
  0
TABLE
  2
APPID
  5
9
330
0
100
AcDbSymbolTable
 70
    1
  0
APPID
  5
12
330
9
100
AcDbSymbolTableRecord
100
AcDbRegAppTableRecord
  2
ACAD
 70
    0
  0
APPID
  5
52
330
9
100
AcDbSymbolTableRecord
100
AcDbRegAppTableRecord
  2
LibreCad
 70
    0
  0
ENDTAB
  0
TABLE
  2
DIMSTYLE
  5
A
330
0
100
AcDbSymbolTable
 70
    1
100
AcDbDimStyleTable
 71
    1
  0
DIMSTYLE
105
53
330
A
100
AcDbSymbolTableRecord
100
AcDbDimStyleTableRecord
  2
Standard
 70
    0
 40
1
 41
2.5
 42
0.625
 43
0.38
 44
1.25
 45
0
 46
0
 47
0
 48
0
 49
1
140
2.5
141
0.09
142
0
143
25.4
144
1
145
0
146
1
147
0.625
148
0
 71
    0
 72
    0
 73
    0
 74
    1
 75
    0
 76
    0
 77
    0
 78
    8
 79
    0
170
    0
171
    2
172
    0
173
    0
174
    0
175
    0
176
    0
177
    0
178
    0
179
    0
271
    2
272
    4
273
    2
274
    2
275
    0
276
    0
277
    2
278
   44
279
    0
280
    0
281
    0
282
    0
283
    1
284
    0
285
    0
286
    0
288
    0
289
    3
340
STANDARD
341

371
   -2
372
   -2
  0
ENDTAB
  0
TABLE
  2
BLOCK_RECORD
  5
1
330
0
100
AcDbSymbolTable
 70
    2
  0
BLOCK_RECORD
  5
1F
330
1
100
AcDbSymbolTableRecord
100
AcDbBlockTableRecord
  2
*Model_Space
 70
    0
280
    1
281
    0
  0
BLOCK_RECORD
  5
1E
330
1
100
AcDbSymbolTableRecord
100
AcDbBlockTableRecord
  2
*Paper_Space
 70
    0
280
    1
281
    0
  0
ENDTAB
  0
ENDSEC
  0
SECTION
  2
BLOCKS
  0
BLOCK
  5
20
330
1F
100
AcDbEntity
  8
0
100
AcDbBlockBegin
  2
*Model_Space
 70
    0
 10
0
 20
0
 30
0
  3
*Model_Space
  1

  0
ENDBLK
  5
21
330
1F
100
AcDbEntity
  8
0
100
AcDbBlockEnd
  0
BLOCK
  5
1C
330
1B
100
AcDbEntity
  8
0
100
AcDbBlockBegin
  2
*Paper_Space
 70
    0
 10
0
 20
0
 30
0
  3
*Paper_Space
  1

  0
ENDBLK
  5
1D
330
1F
100
AcDbEntity
  8
0
100
AcDbBlockEnd
  0
ENDSEC
  0
SECTION
  2
ENTITIES
  0
LINE
  5
54
100
AcDbEntity
  8
0
  6
ByLayer
 62
  256
370
   -1
100
AcDbLine
 10
183.2021520000001
 20
227.984131
 11
183.2021520000001
 21
248.728775
  0
SPLINE
  5
55
100
AcDbEntity
  8
0
  6
ByLayer
 62
  256
370
   -1
100
AcDbSpline
210
0
220
0
230
0
 70
    8
 71
    3
 72
    8
 73
    4
 74
    0
 42
1e-07
 43
1e-07
 40
0
 40
0
 40
0
 40
0
 40
1
 40
1
 40
1
 40
1
 10
183.2021520000001
 20
248.72877
 30
0
 10
183.2021520000001
 20
249.259203
 30
0
 10
182.9914390000001
 20
249.767911
 30
0
 10
182.6163660000001
 20
250.142984
 30
0
  0
SPLINE
  5
56
100
AcDbEntity
  8
0
  6
ByLayer
 62
  256
370
   -1
100
AcDbSpline
210
0
220
0
230
0
 70
    8
 71
    3
 72
    8
 73
    4
 74
    0
 42
1e-07
 43
1e-07
 40
0
 40
0
 40
0
 40
0
 40
1
 40
1
 40
1
 40
1
 10
182.6163660000001
 20
250.142984
 30
0
 10
182.2412940000001
 20
250.518057
 30
0
 10
181.7325860000001
 20
250.728771
 30
0
 10
181.2021530000001
 20
250.728771
 30
0
  0
LINE
  5
57
100
AcDbEntity
  8
0
  6
ByLayer
 62
  256
370
   -1
100
AcDbLine
 10
181.2021490000001
 20
250.728763
 11
178.9521510000001
 21
250.728763
  0
SPLINE
  5
58
100
AcDbEntity
  8
0
  6
ByLayer
 62
  256
370
   -1
100
AcDbSpline
210
0
220
0
230
0
 70
    8
 71
    3
 72
    8
 73
    4
 74
    0
 42
1e-07
 43
1e-07
 40
0
 40
0
 40
0
 40
0
 40
1
 40
1
 40
1
 40
1
 10
178.9521510000001
 20
250.728771
 30
0
 10
177.8475830000001
 20
250.728769
 30
0
 10
176.9521550000001
 20
249.833338
 30
0
 10
176.9521560000001
 20
248.72877
 30
0
  0
LINE
  5
59
100
AcDbEntity
  8
0
  6
ByLayer
 62
  256
370
   -1
100
AcDbLine
 10
176.9521560000001
 20
248.728775
 11
176.9521560000001
 21
234.968434
  0
SPLINE
  5
5A
100
AcDbEntity
  8
0
  6
ByLayer
 62
  256
370
   -1
100
AcDbSpline
210
0
220
0
230
0
 70
    8
 71
    3
 72
    8
 73
    4
 74
    0
 42
1e-07
 43
1e-07
 40
0
 40
0
 40
0
 40
0
 40
1
 40
1
 40
1
 40
1
 10
175.2021530000001
 20
232.984123
 30
0
 10
176.2021540000001
 20
233.11011
 30
0
 10
176.9521560000001
 20
233.960531
 30
0
 10
176.9521560000001
 20
234.968438
 30
0
  0
LINE
  5
5B
100
AcDbEntity
  8
0
  6
ByLayer
 62
  256
370
   -1
100
AcDbLine
 10
175.2021560000001
 20
232.984123
 11
96.20217000000009
 21
232.984123
  0
SPLINE
  5
5C
100
AcDbEntity
  8
0
  6
ByLayer
 62
  256
370
   -1
100
AcDbSpline
210
0
220
0
230
0
 70
    8
 71
    3
 72
    8
 73
    4
 74
    0
 42
1e-07
 43
1e-07
 40
0
 40
0
 40
0
 40
0
 40
1
 40
1
 40
1
 40
1
 10
94.45217100000009
 20
234.968438
 30
0
 10
94.45217000000009
 20
233.960531
 30
0
 10
95.20217200000009
 20
233.11011
 30
0
 10
96.20217400000008
 20
232.984123
 30
0
  0
LINE
  5
5D
100
AcDbEntity
  8
0
  6
ByLayer
 62
  256
370
   -1
100
AcDbLine
 10
94.45217100000009
 20
234.968434
 11
94.45217100000009
 21
248.728775
  0
SPLINE
  5
5E
100
AcDbEntity
  8
0
  6
ByLayer
 62
  256
370
   -1
100
AcDbSpline
210
0
220
0
230
0
 70
    8
 71
    3
 72
    8
 73
    4
 74
    0
 42
1e-07
 43
1e-07
 40
0
 40
0
 40
0
 40
0
 40
1
 40
1
 40
1
 40
1
 10
94.45217100000009
 20
248.72877
 30
0
 10
94.45217100000009
 20
249.833338
 30
0
 10
93.55674300000008
 20
250.728769
 30
0
 10
92.45217500000008
 20
250.728771
 30
0
  0
LINE
  5
5F
100
AcDbEntity
  8
0
  6
ByLayer
 62
  256
370
   -1
100
AcDbLine
 10
92.45217500000008
 20
250.728763
 11
90.20217300000009
 21
250.728763
  0
SPLINE
  5
60
100
AcDbEntity
  8
0
  6
ByLayer
 62
  256
370
   -1
100
AcDbSpline
210
0
220
0
230
0
 70
    8
 71
    3
 72
    8
 73
    4
 74
    0
 42
1e-07
 43
1e-07
 40
0
 40
0
 40
0
 40
0
 40
1
 40
1
 40
1
 40
1
 10
90.20217300000009
 20
250.728771
 30
0
 10
89.6717400000001
 20
250.728771
 30
0
 10
89.16303300000008
 20
250.518057
 30
0
 10
88.7879600000001
 20
250.142984
 30
0
  0
SPLINE
  5
61
100
AcDbEntity
  8
0
  6
ByLayer
 62
  256
370
   -1
100
AcDbSpline
210
0
220
0
230
0
 70
    8
 71
    3
 72
    8
 73
    4
 74
    0
 42
1e-07
 43
1e-07
 40
0
 40
0
 40
0
 40
0
 40
1
 40
1
 40
1
 40
1
 10
88.7879600000001
 20
250.142984
 30
0
 10
88.41288700000008
 20
249.767911
 30
0
 10
88.20217400000008
 20
249.259203
 30
0
 10
88.20217400000008
 20
248.72877
 30
0
  0
LINE
  5
62
100
AcDbEntity
  8
0
  6
ByLayer
 62
  256
370
   -1
100
AcDbLine
 10
88.20217400000008
 20
248.728775
 11
88.20217400000008
 21
227.984131
  0
SPLINE
  5
63
100
AcDbEntity
  8
0
  6
ByLayer
 62
  256
370
   -1
100
AcDbSpline
210
0
220
0
230
0
 70
    8
 71
    3
 72
    8
 73
    4
 74
    0
 42
1e-07
 43
1e-07
 40
0
 40
0
 40
0
 40
0
 40
1
 40
1
 40
1
 40
1
 10
88.20217400000008
 20
227.984127
 30
0
 10
88.20217400000008
 20
227.453694
 30
0
 10
88.41288700000008
 20
226.944986
 30
0
 10
88.7879590000001
 20
226.569912
 30
0
  0
SPLINE
  5
64
100
AcDbEntity
  8
0
  6
ByLayer
 62
  256
370
   -1
100
AcDbSpline
210
0
220
0
230
0
 70
    8
 71
    3
 72
    8
 73
    4
 74
    0
 42
1e-07
 43
1e-07
 40
0
 40
0
 40
0
 40
0
 40
1
 40
1
 40
1
 40
1
 10
88.7879590000001
 20
226.569912
 30
0
 10
89.16303200000009
 20
226.194839
 30
0
 10
89.6717400000001
 20
225.984125
 30
0
 10
90.20217300000009
 20
225.984125
 30
0
  0
LINE
  5
65
100
AcDbEntity
  8
0
  6
ByLayer
 62
  256
370
   -1
100
AcDbLine
 10
90.20217300000009
 20
225.984125
 11
181.2021490000001
 21
225.984125
  0
SPLINE
  5
66
100
AcDbEntity
  8
0
  6
ByLayer
 62
  256
370
   -1
100
AcDbSpline
210
0
220
0
230
0
 70
    8
 71
    3
 72
    8
 73
    4
 74
    0
 42
1e-07
 43
1e-07
 40
0
 40
0
 40
0
 40
0
 40
1
 40
1
 40
1
 40
1
 10
181.2021530000001
 20
225.984125
 30
0
 10
181.7325860000001
 20
225.984125
 30
0
 10
182.2412940000001
 20
226.194839
 30
0
 10
182.6163670000001
 20
226.569912
 30
0
  0
SPLINE
  5
67
100
AcDbEntity
  8
0
  6
ByLayer
 62
  256
370
   -1
100
AcDbSpline
210
0
220
0
230
0
 70
    8
 71
    3
 72
    8
 73
    4
 74
    0
 42
1e-07
 43
1e-07
 40
0
 40
0
 40
0
 40
0
 40
1
 40
1
 40
1
 40
1
 10
182.6163670000001
 20
226.569912
 30
0
 10
182.9914400000001
 20
226.944986
 30
0
 10
183.2021530000001
 20
227.453694
 30
0
 10
183.2021520000001
 20
227.984127
 30
0
  0
SPLINE
  5
68
100
AcDbEntity
  8
0
  6
ByLayer
 62
  256
370
   -1
100
AcDbSpline
210
0
220
0
230
0
 70
    8
 71
    3
 72
    8
 73
    4
 74
    0
 42
1e-07
 43
1e-07
 40
0
 40
0
 40
0
 40
0
 40
1
 40
1
 40
1
 40
1
 10
200.7021470000001
 20
34.30133899999998
 30
0
 10
200.1657980000001
 20
34.30201699999999
 30
0
 10
199.6699000000001
 20
34.01626799999999
 30
0
 10
199.4015290000001
 20
33.55188799999998
 30
0
  0
SPLINE
  5
69
100
AcDbEntity
  8
0
  6
ByLayer
 62
  256
370
   -1
100
AcDbSpline
210
0
220
0
230
0
 70
    8
 71
    3
 72
    8
 73
    4
 74
    0
 42
1e-07
 43
1e-07
 40
0
 40
0
 40
0
 40
0
 40
1
 40
1
 40
1
 40
1
 10
199.4015290000001
 20
33.55188799999998
 30
0
 10
199.1331580000001
 20
33.08750799999999
 30
0
 10
199.1331580000001
 20
32.51517299999999
 30
0
 10
199.4015290000001
 20
32.05079299999998
 30
0
  0
SPLINE
  5
6A
100
AcDbEntity
  8
0
  6
ByLayer
 62
  256
370
   -1
100
AcDbSpline
210
0
220
0
230
0
 70
    8
 71
    3
 72
    8
 73
    4
 74
    0
 42
1e-07
 43
1e-07
 40
0
 40
0
 40
0
 40
0
 40
1
 40
1
 40
1
 40
1
 10
199.4015290000001
 20
32.05079299999998
 30
0
 10
199.6699000000001
 20
31.58641399999998
 30
0
 10
200.1657980000001
 20
31.30066399999998
 30
0
 10
200.7021470000001
 20
31.30134199999998
 30
0
  0
SPLINE
  5
6B
100
AcDbEntity
  8
Discard
  6
ByLayer
 62
  256
370
   -1
100
AcDbSpline
210
0
220
0
230
0
 70
    8
 71
    3
 72
    8
 73
    4
 74
    0
 42
1e-07
 43
1e-07
 40
0
 40
0
 40
0
 40
0
 40
1
 40
1
 40
1
 40
1
 10
200.7021470000001
 20
31.30134199999998
 30
0
 10
201.2384970000001
 20
31.30066399999998
 30
0
 10
201.7343950000001
 20
31.58641399999998
 30
0
 10
202.0027660000001
 20
32.05079299999998
 30
0
  0
SPLINE
  5
6C
100
AcDbEntity
  8
0
  6
ByLayer
 62
  256
370
   -1
100
AcDbSpline
210
0
220
0
230
0
 70
    8
 71
    3
 72
    8
 73
    4
 74
    0
 42
1e-07
 43
1e-07
 40
0
 40
0
 40
0
 40
0
 40
1
 40
1
 40
1
 40
1
 10
202.0027660000001
 20
32.05079299999998
 30
0
 10
202.2711370000001
 20
32.51517299999999
 30
0
 10
202.2711370000001
 20
33.08750799999999
 30
0
 10
202.0027660000001
 20
33.55188799999998
 30
0
  0
SPLINE
  5
6D
100
AcDbEntity
  8
0
  6
ByLayer
 62
  256
370
   -1
100
AcDbSpline
210
0
220
0
230
0
 70
    8
 71
    3
 72
    8
 73
    4
 74
    0
 42
1e-07
 43
1e-07
 40
0
 40
0
 40
0
 40
0
 40
1
 40
1
 40
1
 40
1
 10
202.0027660000001
 20
33.55188799999998
 30
0
 10
201.7343950000001
 20
34.01626799999999
 30
0
 10
201.2384970000001
 20
34.30201699999999
 30
0
 10
200.7021470000001
 20
34.30133899999998
 30
0
  0
LINE
  5
6E
100
AcDbEntity
  8
Discard
  6
ByLayer
 62
  256
370
   -1
100
AcDbLine
 10
200.7021470000001
 20
34.30133899999998
 11
200.7021470000001
 21
34.30133899999998
  0
LINE
  5
6F
100
AcDbEntity
  8
0
  6
ByLayer
 62
  256
370
   -1
100
AcDbLine
 10
55.70218500000008
 20
95.04843100000001
 11
55.70218500000007
 21
32.801343
  0
SPLINE
  5
70
100
AcDbEntity
  8
0
  6
ByLayer
 62
  256
370
   -1
100
AcDbSpline
210
0
220
0
230
0
 70
    8
 71
    3
 72
    8
 73
    4
 74
    0
 42
1e-07
 43
1e-07
 40
0
 40
0
 40
0
 40
0
 40
1
 40
1
 40
1
 40
1
 10
62.92108200000008
 20
107.872408
 30
0
 10
58.43914700000008
 20
105.152943
 30
0
 10
55.70218200000009
 20
100.290876
 30
0
 10
55.70218100000009
 20
95.04843100000001
 30
0
  0
LINE
  5
71
100
AcDbEntity
  8
0
  6
ByLayer
 62
  256
370
   -1
100
AcDbLine
 10
78.48327600000009
 20
117.314947
 11
62.92107800000009
 21
107.872408
  0
SPLINE
  5
72
100
AcDbEntity
  8
0
  6
ByLayer
 62
  256
370
   -1
100
AcDbSpline
210
0
220
0
230
0
 70
    8
 71
    3
 72
    8
 73
    4
 74
    0
 42
1e-07
 43
1e-07
 40
0
 40
0
 40
0
 40
0
 40
1
 40
1
 40
1
 40
1
 10
78.48327600000009
 20
117.314947
 30
0
 10
82.96521200000008
 20
120.034413
 30
0
 10
85.70217700000011
 20
124.896481
 30
0
 10
85.70217700000011
 20
130.138927
 30
0
  0
LINE
  5
73
100
AcDbEntity
  8
0
  6
ByLayer
 62
  256
370
   -1
100
AcDbLine
 10
85.70217300000009
 20
199.771424
 11
85.70217300000009
 21
130.138927
  0
SPLINE
  5
74
100
AcDbEntity
  8
0
  6
ByLayer
 62
  256
370
   -1
100
AcDbSpline
210
0
220
0
230
0
 70
    8
 71
    3
 72
    8
 73
    4
 74
    0
 42
1e-07
 43
1e-07
 40
0
 40
0
 40
0
 40
0
 40
1
 40
1
 40
1
 40
1
 10
85.70217700000011
 20
199.771417
 30
0
 10
85.70217600000008
 20
204.506979
 30
0
 10
83.46593900000009
 20
208.964449
 30
0
 10
79.6698580000001
 20
211.795583
 30
0
  0
LINE
  5
75
100
AcDbEntity
  8
0
  6
ByLayer
 62
  256
370
   -1
100
AcDbLine
 10
61.7345000000001
 20
225.171861
 11
79.66986200000009
 21
211.795587
  0
SPLINE
  5
76
100
AcDbEntity
  8
0
  6
ByLayer
 62
  256
370
   -1
100
AcDbSpline
210
0
220
0
230
0
 70
    8
 71
    3
 72
    8
 73
    4
 74
    0
 42
1e-07
 43
1e-07
 40
0
 40
0
 40
0
 40
0
 40
1
 40
1
 40
1
 40
1
 10
55.7021810000001
 20
237.196032
 30
0
 10
55.7021810000001
 20
232.46047
 30
0
 10
57.93841600000009
 20
228.003
 30
0
 10
61.73449600000008
 20
225.171865
 30
0
  0
LINE
  5
77
100
AcDbEntity
  8
0
  6
ByLayer
 62
  256
370
   -1
100
AcDbLine
 10
55.70218500000009
 20
254.370085
 11
55.70218500000009
 21
237.196024
  0
SPLINE
  5
78
100
AcDbEntity
  8
0
  6
ByLayer
 62
  256
370
   -1
100
AcDbSpline
210
0
220
0
230
0
 70
    8
 71
    3
 72
    8
 73
    4
 74
    0
 42
1e-07
 43
1e-07
 40
0
 40
0
 40
0
 40
0
 40
1
 40
1
 40
1
 40
1
 10
70.7021790000001
 20
269.370086
 30
0
 10
66.72393200000009
 20
269.370086
 30
0
 10
62.9086240000001
 20
267.789734
 30
0
 10
60.09557800000009
 20
264.976688
 30
0
  0
SPLINE
  5
79
100
AcDbEntity
  8
0
  6
ByLayer
 62
  256
370
   -1
100
AcDbSpline
210
0
220
0
230
0
 70
    8
 71
    3
 72
    8
 73
    4
 74
    0
 42
1e-07
 43
1e-07
 40
0
 40
0
 40
0
 40
0
 40
1
 40
1
 40
1
 40
1
 10
60.09557800000009
 20
264.976688
 30
0
 10
57.2825330000001
 20
262.163643
 30
0
 10
55.7021810000001
 20
258.348334
 30
0
 10
55.7021810000001
 20
254.370087
 30
0
  0
LINE
  5
7A
100
AcDbEntity
  8
0
  6
ByLayer
 62
  256
370
   -1
100
AcDbLine
 10
200.7021470000001
 20
269.370083
 11
70.7021790000001
 21
269.370083
  0
SPLINE
  5
7B
100
AcDbEntity
  8
0
  6
ByLayer
 62
  256
370
   -1
100
AcDbSpline
210
0
220
0
230
0
 70
    8
 71
    3
 72
    8
 73
    4
 74
    0
 42
1e-07
 43
1e-07
 40
0
 40
0
 40
0
 40
0
 40
1
 40
1
 40
1
 40
1
 10
215.7021450000001
 20
254.370087
 30
0
 10
215.7021450000001
 20
258.348334
 30
0
 10
214.1217930000001
 20
262.163643
 30
0
 10
211.3087480000001
 20
264.976688
 30
0
  0
SPLINE
  5
7C
100
AcDbEntity
  8
0
  6
ByLayer
 62
  256
370
   -1
100
AcDbSpline
210
0
220
0
230
0
 70
    8
 71
    3
 72
    8
 73
    4
 74
    0
 42
1e-07
 43
1e-07
 40
0
 40
0
 40
0
 40
0
 40
1
 40
1
 40
1
 40
1
 10
211.3087480000001
 20
264.976688
 30
0
 10
208.4957030000001
 20
267.789734
 30
0
 10
204.6803940000001
 20
269.370086
 30
0
 10
200.7021470000001
 20
269.370086
 30
0
  0
LINE
  5
7D
100
AcDbEntity
  8
0
  6
ByLayer
 62
  256
370
   -1
100
AcDbLine
 10
215.7021410000001
 20
237.196024
 11
215.7021410000001
 21
254.370085
  0
SPLINE
  5
7E
100
AcDbEntity
  8
0
  6
ByLayer
 62
  256
370
   -1
100
AcDbSpline
210
0
220
0
230
0
 70
    8
 71
    3
 72
    8
 73
    4
 74
    0
 42
1e-07
 43
1e-07
 40
0
 40
0
 40
0
 40
0
 40
1
 40
1
 40
1
 40
1
 10
209.6698270000001
 20
225.171865
 30
0
 10
213.4659080000001
 20
228.002999
 30
0
 10
215.7021440000001
 20
232.46047
 30
0
 10
215.7021450000001
 20
237.196032
 30
0
  0
LINE
  5
7F
100
AcDbEntity
  8
0
  6
ByLayer
 62
  256
370
   -1
100
AcDbLine
 10
191.7344650000001
 20
211.795587
 11
209.6698270000001
 21
225.171861
  0
SPLINE
  5
80
100
AcDbEntity
  8
0
  6
ByLayer
 62
  256
370
   -1
100
AcDbSpline
210
0
220
0
230
0
 70
    8
 71
    3
 72
    8
 73
    4
 74
    0
 42
1e-07
 43
1e-07
 40
0
 40
0
 40
0
 40
0
 40
1
 40
1
 40
1
 40
1
 10
191.7344650000001
 20
211.795583
 30
0
 10
187.9383850000001
 20
208.964448
 30
0
 10
185.7021500000001
 20
204.506979
 30
0
 10
185.7021500000001
 20
199.771417
 30
0
  0
LINE
  5
81
100
AcDbEntity
  8
0
  6
ByLayer
 62
  256
370
   -1
100
AcDbLine
 10
185.7021500000001
 20
130.138927
 11
185.7021500000001
 21
199.771424
  0
SPLINE
  5
82
100
AcDbEntity
  8
0
  6
ByLayer
 62
  256
370
   -1
100
AcDbSpline
210
0
220
0
230
0
 70
    8
 71
    3
 72
    8
 73
    4
 74
    0
 42
1e-07
 43
1e-07
 40
0
 40
0
 40
0
 40
0
 40
1
 40
1
 40
1
 40
1
 10
185.7021500000001
 20
130.138927
 30
0
 10
185.7021490000001
 20
124.896481
 30
0
 10
188.4391140000001
 20
120.034413
 30
0
 10
192.9210500000001
 20
117.314947
 30
0
  0
LINE
  5
83
100
AcDbEntity
  8
0
  6
ByLayer
 62
  256
370
   -1
100
AcDbLine
 10
208.4832450000001
 20
107.872408
 11
192.9210500000001
 21
117.314947
  0
SPLINE
  5
84
100
AcDbEntity
  8
0
  6
ByLayer
 62
  256
370
   -1
100
AcDbSpline
210
0
220
0
230
0
 70
    8
 71
    3
 72
    8
 73
    4
 74
    0
 42
1e-07
 43
1e-07
 40
0
 40
0
 40
0
 40
0
 40
1
 40
1
 40
1
 40
1
 10
215.7021450000001
 20
95.04843099999999
 30
0
 10
215.7021440000001
 20
100.290876
 30
0
 10
212.9651790000001
 20
105.152943
 30
0
 10
208.4832450000001
 20
107.872408
 30
0
  0
LINE
  5
85
100
AcDbEntity
  8
0
  6
ByLayer
 62
  256
370
   -1
100
AcDbLine
 10
215.7021410000001
 20
32.80134299999999
 11
215.7021410000001
 21
95.04843099999999
  0
SPLINE
  5
86
100
AcDbEntity
  8
Discard
  6
ByLayer
 62
  256
370
   -1
100
AcDbSpline
210
0
220
0
230
0
 70
    8
 71
    3
 72
    8
 73
    4
 74
    0
 42
1e-07
 43
1e-07
 40
0
 40
0
 40
0
 40
0
 40
1
 40
1
 40
1
 40
1
 10
198.0309150000001
 20
18.04110999999999
 30
0
 10
202.4055600000001
 20
17.24940799999999
 30
0
 10
206.9060190000001
 20
18.43902199999998
 30
0
 10
210.3180560000001
 20
21.28898999999998
 30
0
  0
SPLINE
  5
87
100
AcDbEntity
  8
0
  6
ByLayer
 62
  256
370
   -1
100
AcDbSpline
210
0
220
0
230
0
 70
    8
 71
    3
 72
    8
 73
    4
 74
    0
 42
1e-07
 43
1e-07
 40
0
 40
0
 40
0
 40
0
 40
1
 40
1
 40
1
 40
1
 10
210.3180560000001
 20
21.28898999999998
 30
0
 10
213.7300940000001
 20
24.13895899999998
 30
0
 10
215.7021440000001
 20
28.35563099999998
 30
0
 10
215.7021450000001
 20
32.80133899999998
 30
0
  0
SPLINE
  5
88
100
AcDbEntity
  8
0
  6
ByLayer
 62
  256
370
   -1
100
AcDbSpline
210
0
220
0
230
0
 70
    8
 71
    3
 72
    8
 73
    4
 74
    0
 42
1e-07
 43
1e-07
 40
0
 40
0
 40
0
 40
0
 40
1
 40
1
 40
1
 40
1
 10
70.70217900000009
 20
34.30133899999999
 30
0
 10
70.16582900000009
 20
34.30201699999999
 30
0
 10
69.66993100000008
 20
34.016268
 30
0
 10
69.40156100000007
 20
33.55188799999999
 30
0
  0
SPLINE
  5
89
100
AcDbEntity
  8
0
  6
ByLayer
 62
  256
370
   -1
100
AcDbSpline
210
0
220
0
230
0
 70
    8
 71
    3
 72
    8
 73
    4
 74
    0
 42
1e-07
 43
1e-07
 40
0
 40
0
 40
0
 40
0
 40
1
 40
1
 40
1
 40
1
 10
69.40156100000007
 20
33.55188799999999
 30
0
 10
69.13319000000007
 20
33.08750799999999
 30
0
 10
69.13319000000007
 20
32.515173
 30
0
 10
69.40156100000007
 20
32.05079299999999
 30
0
  0
SPLINE
  5
8A
100
AcDbEntity
  8
0
  6
ByLayer
 62
  256
370
   -1
100
AcDbSpline
210
0
220
0
230
0
 70
    8
 71
    3
 72
    8
 73
    4
 74
    0
 42
1e-07
 43
1e-07
 40
0
 40
0
 40
0
 40
0
 40
1
 40
1
 40
1
 40
1
 10
69.40156100000007
 20
32.05079299999999
 30
0
 10
69.66993100000008
 20
31.58641399999999
 30
0
 10
70.16582900000009
 20
31.30066399999999
 30
0
 10
70.70217900000009
 20
31.30134199999999
 30
0
  0
SPLINE
  5
8B
100
AcDbEntity
  8
0
  6
ByLayer
 62
  256
370
   -1
100
AcDbSpline
210
0
220
0
230
0
 70
    8
 71
    3
 72
    8
 73
    4
 74
    0
 42
1e-07
 43
1e-07
 40
0
 40
0
 40
0
 40
0
 40
1
 40
1
 40
1
 40
1
 10
70.70217900000009
 20
31.30134199999999
 30
0
 10
71.23852900000009
 20
31.30066399999999
 30
0
 10
71.73442600000007
 20
31.58641399999999
 30
0
 10
72.00279700000007
 20
32.05079299999999
 30
0
  0
SPLINE
  5
8C
100
AcDbEntity
  8
0
  6
ByLayer
 62
  256
370
   -1
100
AcDbSpline
210
0
220
0
230
0
 70
    8
 71
    3
 72
    8
 73
    4
 74
    0
 42
1e-07
 43
1e-07
 40
0
 40
0
 40
0
 40
0
 40
1
 40
1
 40
1
 40
1
 10
72.00279700000007
 20
32.05079299999999
 30
0
 10
72.27116800000007
 20
32.515173
 30
0
 10
72.27116800000007
 20
33.08750799999999
 30
0
 10
72.00279700000007
 20
33.55188799999999
 30
0
  0
SPLINE
  5
8D
100
AcDbEntity
  8
0
  6
ByLayer
 62
  256
370
   -1
100
AcDbSpline
210
0
220
0
230
0
 70
    8
 71
    3
 72
    8
 73
    4
 74
    0
 42
1e-07
 43
1e-07
 40
0
 40
0
 40
0
 40
0
 40
1
 40
1
 40
1
 40
1
 10
72.00279700000007
 20
33.55188799999999
 30
0
 10
71.73442600000007
 20
34.016268
 30
0
 10
71.23852900000009
 20
34.30201699999999
 30
0
 10
70.70217900000009
 20
34.30133899999999
 30
0
  0
LINE
  5
8E
100
AcDbEntity
  8
Discard
  6
ByLayer
 62
  256
370
   -1
100
AcDbLine
 10
70.70217900000009
 20
34.30133899999999
 11
70.70217900000009
 21
34.30133899999999
  0
SPLINE
  5
8F
100
AcDbEntity
  8
0
  6
ByLayer
 62
  256
370
   -1
100
AcDbSpline
210
0
220
0
230
0
 70
    8
 71
    3
 72
    8
 73
    4
 74
    0
 42
1e-07
 43
1e-07
 40
0
 40
0
 40
0
 40
0
 40
1
 40
1
 40
1
 40
1
 10
109.0974680000001
 20
134.326875
 30
0
 10
109.0974680000001
 20
132.991337
 30
0
 10
109.6317710000001
 20
131.711306
 30
0
 10
110.5812770000001
 20
130.772105
 30
0
  0
SPLINE
  5
90
100
AcDbEntity
  8
0
  6
ByLayer
 62
  256
370
   -1
100
AcDbSpline
210
0
220
0
230
0
 70
    8
 71
    3
 72
    8
 73
    4
 74
    0
 42
1e-07
 43
1e-07
 40
0
 40
0
 40
0
 40
0
 40
1
 40
1
 40
1
 40
1
 10
110.5812770000001
 20
130.772105
 30
0
 10
111.5307840000001
 20
129.832904
 30
0
 10
112.8165690000001
 20
129.312602
 30
0
 10
114.1520280000001
 20
129.327175
 30
0
  0
LINE
  5
91
100
AcDbEntity
  8
0
  6
ByLayer
 62
  256
370
   -1
100
AcDbLine
 10
114.1520280000001
 20
129.327175
 11
135.7021610000001
 21
129.562344
  0
LINE
  5
92
100
AcDbEntity
  8
0
  6
ByLayer
 62
  256
370
   -1
100
AcDbLine
 10
135.7021610000001
 20
129.562344
 11
157.2522990000001
 21
129.327175
  0
SPLINE
  5
93
100
AcDbEntity
  8
0
  6
ByLayer
 62
  256
370
   -1
100
AcDbSpline
210
0
220
0
230
0
 70
    8
 71
    3
 72
    8
 73
    4
 74
    0
 42
1e-07
 43
1e-07
 40
0
 40
0
 40
0
 40
0
 40
1
 40
1
 40
1
 40
1
 10
157.2522990000001
 20
129.327175
 30
0
 10
158.5877570000001
 20
129.312602
 30
0
 10
159.8735420000001
 20
129.832904
 30
0
 10
160.8230490000001
 20
130.772105
 30
0
  0
SPLINE
  5
94
100
AcDbEntity
  8
0
  6
ByLayer
 62
  256
370
   -1
100
AcDbSpline
210
0
220
0
230
0
 70
    8
 71
    3
 72
    8
 73
    4
 74
    0
 42
1e-07
 43
1e-07
 40
0
 40
0
 40
0
 40
0
 40
1
 40
1
 40
1
 40
1
 10
160.8230490000001
 20
130.772105
 30
0
 10
161.7725550000001
 20
131.711306
 30
0
 10
162.3068580000001
 20
132.991337
 30
0
 10
162.3068580000001
 20
134.326875
 30
0
  0
LINE
  5
95
100
AcDbEntity
  8
0
  6
ByLayer
 62
  256
370
   -1
100
AcDbLine
 10
162.3068580000001
 20
134.326875
 11
162.3068580000001
 21
145.692373
  0
LINE
  5
96
100
AcDbEntity
  8
0
  6
ByLayer
 62
  256
370
   -1
100
AcDbLine
 10
162.3068580000001
 20
145.692373
 11
162.2406740000001
 21
207.875256
  0
SPLINE
  5
97
100
AcDbEntity
  8
0
  6
ByLayer
 62
  256
370
   -1
100
AcDbSpline
210
0
220
0
230
0
 70
    8
 71
    3
 72
    8
 73
    4
 74
    0
 42
1e-07
 43
1e-07
 40
0
 40
0
 40
0
 40
0
 40
1
 40
1
 40
1
 40
1
 10
162.2406740000001
 20
207.875253
 30
0
 10
162.2377380000001
 20
210.634597
 30
0
 10
160.0000240000001
 20
212.869932
 30
0
 10
157.2406780000001
 20
212.869932
 30
0
  0
LINE
  5
98
100
AcDbEntity
  8
0
  6
ByLayer
 62
  256
370
   -1
100
AcDbLine
 10
157.2406780000001
 20
212.869929
 11
114.1636480000001
 21
212.869929
  0
SPLINE
  5
99
100
AcDbEntity
  8
0
  6
ByLayer
 62
  256
370
   -1
100
AcDbSpline
210
0
220
0
230
0
 70
    8
 71
    3
 72
    8
 73
    4
 74
    0
 42
1e-07
 43
1e-07
 40
0
 40
0
 40
0
 40
0
 40
1
 40
1
 40
1
 40
1
 10
114.1636480000001
 20
212.869932
 30
0
 10
111.4043020000001
 20
212.869932
 30
0
 10
109.1665880000001
 20
210.634597
 30
0
 10
109.1636530000001
 20
207.875253
 30
0
  0
LINE
  5
9A
100
AcDbEntity
  8
0
  6
ByLayer
 62
  256
370
   -1
100
AcDbLine
 10
109.1636530000001
 20
207.875256
 11
109.0974680000001
 21
145.692373
  0
LINE
  5
9B
100
AcDbEntity
  8
0
  6
ByLayer
 62
  256
370
   -1
100
AcDbLine
 10
109.0974680000001
 20
145.692373
 11
109.0974680000001
 21
134.326875
  0
LINE
  5
9C
100
AcDbEntity
  8
0
  6
ByLayer
 62
  256
370
   -1
100
AcDbLine
 10
56.5800510000001
 20
232.049985
 11
10.76764300000009
 21
238.570636
  0
LINE
  5
9D
100
AcDbEntity
  8
0
  6
ByLayer
 62
  256
370
   -1
100
AcDbLine
 10
10.76764300000009
 20
238.570636
 11
10.23757300000007
 21
242.452938
  0
LINE
  5
9E
100
AcDbEntity
  8
0
  6
ByLayer
 62
  256
370
   -1
100
AcDbLine
 10
10.23757300000007
 20
242.452938
 11
2.26772600000011
 21
242.929129
  0
LINE
  5
9F
100
AcDbEntity
  8
0
  6
ByLayer
 62
  256
370
   -1
100
AcDbLine
 10
2.26772600000011
 20
242.929129
 11
1.02069200000007
 21
263.477909
  0
LINE
  5
A0
100
AcDbEntity
  8
0
  6
ByLayer
 62
  256
370
   -1
100
AcDbLine
 10
1.02069200000007
 20
263.477909
 11
8.103198000000093
 21
263.605537
  0
LINE
  5
A1
100
AcDbEntity
  8
0
  6
ByLayer
 62
  256
370
   -1
100
AcDbLine
 10
8.103198000000093
 20
263.605537
 11
8.459856000000075
 21
265.260624
  0
LINE
  5
A2
100
AcDbEntity
  8
0
  6
ByLayer
 62
  256
370
   -1
100
AcDbLine
 10
8.459856000000075
 20
265.260624
 11
60.37507500000008
 21
265.588201
  0
LINE
  5
A3
100
AcDbEntity
  8
0
  6
ByLayer
 62
  256
370
   -1
100
AcDbLine
 10
82.65391300000009
 20
239.323285
 11
85.3784570000001
 21
236.745236
  0
LINE
  5
A4
100
AcDbEntity
  8
0
  6
ByLayer
 62
  256
370
   -1
100
AcDbLine
 10
85.3784570000001
 20
236.745236
 11
87.6937480000001
 21
237.374997
  0
LINE
  5
A5
100
AcDbEntity
  8
0
  6
ByLayer
 62
  256
370
   -1
100
AcDbLine
 10
87.6937480000001
 20
237.374997
 11
89.59554400000009
 21
239.076757
  0
LINE
  5
A6
100
AcDbEntity
  8
0
  6
ByLayer
 62
  256
370
   -1
100
AcDbLine
 10
89.59554400000009
 20
239.076757
 11
90.46462200000009
 21
240.515736
  0
LINE
  5
A7
100
AcDbEntity
  8
0
  6
ByLayer
 62
  256
370
   -1
100
AcDbLine
 10
90.46462200000009
 20
240.515736
 11
91.10319200000008
 21
245.825887
  0
LINE
  5
A8
100
AcDbEntity
  8
0
  6
ByLayer
 62
  256
370
   -1
100
AcDbLine
 10
91.10319200000008
 20
245.825887
 11
92.78787500000008
 21
246.673001
  0
LINE
  5
A9
100
AcDbEntity
  8
0
  6
ByLayer
 62
  256
370
   -1
100
AcDbLine
 10
92.78787500000008
 20
246.673001
 11
177.0503790000001
 21
247.326322
  0
LINE
  5
AA
100
AcDbEntity
  8
0
  6
ByLayer
 62
  256
370
   -1
100
AcDbLine
 10
177.0503790000001
 20
247.326322
 11
178.9252340000001
 21
246.278056
  0
LINE
  5
AB
100
AcDbEntity
  8
0
  6
ByLayer
 62
  256
370
   -1
100
AcDbLine
 10
178.9252340000001
 20
246.278056
 11
179.4666350000001
 21
244.110647
  0
LINE
  5
AC
100
AcDbEntity
  8
0
  6
ByLayer
 62
  256
370
   -1
100
AcDbLine
 10
179.4666350000001
 20
244.110647
 11
179.6837450000001
 21
240.580747
  0
LINE
  5
AD
100
AcDbEntity
  8
0
  6
ByLayer
 62
  256
370
   -1
100
AcDbLine
 10
179.6837450000001
 20
240.580747
 11
180.4067240000001
 21
239.223474
  0
LINE
  5
AE
100
AcDbEntity
  8
0
  6
ByLayer
 62
  256
370
   -1
100
AcDbLine
 10
180.4067240000001
 20
239.223474
 11
182.6928040000001
 21
238.064247
  0
LINE
  5
AF
100
AcDbEntity
  8
0
  6
ByLayer
 62
  256
370
   -1
100
AcDbLine
 10
182.6928040000001
 20
238.064247
 11
186.3022600000001
 21
238.393042
  0
LINE
  5
B0
100
AcDbEntity
  8
0
  6
ByLayer
 62
  256
370
   -1
100
AcDbLine
 10
186.3022600000001
 20
238.393042
 11
187.7684320000001
 21
240.182575
  0
LINE
  5
B1
100
AcDbEntity
  8
0
  6
ByLayer
 62
  256
370
   -1
100
AcDbLine
 10
187.7684320000001
 20
240.182575
 11
187.9684220000001
 21
254.006443
  0
LINE
  5
B2
100
AcDbEntity
  8
0
  6
ByLayer
 62
  256
370
   -1
100
AcDbLine
 10
187.9684220000001
 20
254.006443
 11
186.4238590000001
 21
256.265444
  0
LINE
  5
B3
100
AcDbEntity
  8
0
  6
ByLayer
 62
  256
370
   -1
100
AcDbLine
 10
186.4238590000001
 20
256.265444
 11
184.7992080000001
 21
256.497342
  0
LINE
  5
B4
100
AcDbEntity
  8
0
  6
ByLayer
 62
  256
370
   -1
100
AcDbLine
 10
184.7992080000001
 20
256.497342
 11
86.52915800000009
 21
255.120905
  0
LINE
  5
B5
100
AcDbEntity
  8
0
  6
ByLayer
 62
  256
370
   -1
100
AcDbLine
 10
86.52915800000009
 20
255.120905
 11
84.22971800000009
 21
253.866014
  0
LINE
  5
B6
100
AcDbEntity
  8
0
  6
ByLayer
 62
  256
370
   -1
100
AcDbLine
 10
84.22971800000009
 20
253.866014
 11
82.1366520000001
 21
252.252633
  0
LINE
  5
B7
100
AcDbEntity
  8
0
  6
ByLayer
 62
  256
370
   -1
100
AcDbLine
 10
82.1366520000001
 20
252.252633
 11
82.24716700000009
 21
249.377427
  0
LINE
  5
B8
100
AcDbEntity
  8
0
  6
ByLayer
 62
  256
370
   -1
100
AcDbLine
 10
82.24716700000009
 20
249.377427
 11
82.65391300000009
 21
239.323285
  0
LINE
  5
B9
100
AcDbEntity
  8
0
  6
ByLayer
 62
  256
370
   -1
100
AcDbLine
 10
60.37507500000008
 20
265.588201
 11
260.0640580000001
 21
268.224993
  0
LINE
  5
BA
100
AcDbEntity
  8
0
  6
ByLayer
 62
  256
370
   -1
100
AcDbLine
 10
260.0640580000001
 20
268.224993
 11
261.0613780000001
 21
266.368198
  0
LINE
  5
BB
100
AcDbEntity
  8
0
  6
ByLayer
 62
  256
370
   -1
100
AcDbLine
 10
261.0613780000001
 20
266.368198
 11
268.0047100000001
 21
266.167975
  0
LINE
  5
BC
100
AcDbEntity
  8
0
  6
ByLayer
 62
  256
370
   -1
100
AcDbLine
 10
268.0047100000001
 20
266.167975
 11
269.4180820000001
 21
265.448976
  0
LINE
  5
BD
100
AcDbEntity
  8
0
  6
ByLayer
 62
  256
370
   -1
100
AcDbLine
 10
269.4180820000001
 20
265.448976
 11
269.4620060000001
 21
245.979322
  0
LINE
  5
BE
100
AcDbEntity
  8
0
  6
ByLayer
 62
  256
370
   -1
100
AcDbLine
 10
269.4620060000001
 20
245.979322
 11
268.159473
 21
244.9299669999999
  0
LINE
  5
BF
100
AcDbEntity
  8
0
  6
ByLayer
 62
  256
370
   -1
100
AcDbLine
 10
268.159473
 20
244.9299669999999
 11
260.6983910000001
 21
244.294912
  0
LINE
  5
C0
100
AcDbEntity
  8
0
  6
ByLayer
 62
  256
370
   -1
100
AcDbLine
 10
260.6983910000001
 20
244.294912
 11
260.3788060000001
 21
242.1228829999999
  0
LINE
  5
C1
100
AcDbEntity
  8
0
  6
ByLayer
 62
  256
370
   -1
100
AcDbLine
 10
260.3788060000001
 20
242.1228829999999
 11
260.6019520000001
 21
241.621279
  0
LINE
  5
C2
100
AcDbEntity
  8
0
  6
ByLayer
 62
  256
370
   -1
100
AcDbLine
 10
260.6019520000001
 20
241.621279
 11
214.9823550000001
 21
233.373537
  0
LINE
  5
C3
100
AcDbEntity
  8
0
  6
ByLayer
 62
  256
370
   -1
100
AcDbLine
 10
214.9823550000001
 20
233.373537
 11
198.1925680000001
 21
229.728281
  0
LINE
  5
C4
100
AcDbEntity
  8
0
  6
ByLayer
 62
  256
370
   -1
100
AcDbLine
 10
198.1925680000001
 20
229.728281
 11
187.6211970000001
 21
223.442305
  0
LINE
  5
C5
100
AcDbEntity
  8
0
  6
ByLayer
 62
  256
370
   -1
100
AcDbLine
 10
187.6211970000001
 20
223.442305
 11
181.7485600000001
 21
216.960506
  0
LINE
  5
C6
100
AcDbEntity
  8
0
  6
ByLayer
 62
  256
370
   -1
100
AcDbLine
 10
181.7485600000001
 20
216.960506
 11
174.0268070000001
 21
205.870428
  0
LINE
  5
C7
100
AcDbEntity
  8
0
  6
ByLayer
 62
  256
370
   -1
100
AcDbLine
 10
174.0268070000001
 20
205.870428
 11
173.1414690000001
 21
200.497599
  0
LINE
  5
C8
100
AcDbEntity
  8
0
  6
ByLayer
 62
  256
370
   -1
100
AcDbLine
 10
173.1414690000001
 20
200.497599
 11
172.3420000000001
 21
126.53978
  0
LINE
  5
C9
100
AcDbEntity
  8
0
  6
ByLayer
 62
  256
370
   -1
100
AcDbLine
 10
172.3420000000001
 20
126.53978
 11
174.7039030000001
 21
119.872748
  0
LINE
  5
CA
100
AcDbEntity
  8
0
  6
ByLayer
 62
  256
370
   -1
100
AcDbLine
 10
174.7039030000001
 20
119.872748
 11
177.8234710000001
 21
116.651132
  0
LINE
  5
CB
100
AcDbEntity
  8
0
  6
ByLayer
 62
  256
370
   -1
100
AcDbLine
 10
177.8234710000001
 20
116.651132
 11
181.9091550000001
 21
115.002599
  0
LINE
  5
CC
100
AcDbEntity
  8
0
  6
ByLayer
 62
  256
370
   -1
100
AcDbLine
 10
181.9091550000001
 20
115.002599
 11
187.9672150000001
 21
114.558413
  0
LINE
  5
CD
100
AcDbEntity
  8
0
  6
ByLayer
 62
  256
370
   -1
100
AcDbLine
 10
187.9672150000001
 20
114.558413
 11
197.8060610000001
 21
112.42021
  0
LINE
  5
CE
100
AcDbEntity
  8
0
  6
ByLayer
 62
  256
370
   -1
100
AcDbLine
 10
197.8060610000001
 20
112.42021
 11
203.3329020000001
 21
106.914317
  0
LINE
  5
CF
100
AcDbEntity
  8
0
  6
ByLayer
 62
  256
370
   -1
100
AcDbLine
 10
203.3329020000001
 20
106.914317
 11
207.4197080000001
 21
102.231521
  0
LINE
  5
D0
100
AcDbEntity
  8
Discard
  6
ByLayer
 62
  256
370
   -1
100
AcDbLine
 10
207.4197080000001
 20
102.231521
 11
209.4625450000001
 21
95.00891699999998
  0
LINE
  5
D1
100
AcDbEntity
  8
Discard
  6
ByLayer
 62
  256
370
   -1
100
AcDbLine
 10
209.4625450000001
 20
95.00891699999998
 11
209.5277170000001
 21
68.67596399999999
  0
LINE
  5
D2
100
AcDbEntity
  8
Discard
  6
ByLayer
 62
  256
370
   -1
100
AcDbLine
 10
209.5277170000001
 20
68.67596399999999
 11
210.7026220000001
 21
60.56634599999999
  0
LINE
  5
D3
100
AcDbEntity
  8
Discard
  6
ByLayer
 62
  256
370
   -1
100
AcDbLine
 10
210.7026220000001
 20
60.56634599999999
 11
212.0135900000001
 21
56.97346799999999
  0
LINE
  5
D4
100
AcDbEntity
  8
Discard
  6
ByLayer
 62
  256
370
   -1
100
AcDbLine
 10
212.0135900000001
 20
56.97346799999999
 11
217.6004870000001
 21
46.85446699999999
  0
LINE
  5
D5
100
AcDbEntity
  8
Discard
  6
ByLayer
 62
  256
370
   -1
100
AcDbLine
 10
217.6004870000001
 20
46.85446699999999
 11
226.2812600000001
 21
39.19688799999999
  0
LINE
  5
D6
100
AcDbEntity
  8
Discard
  6
ByLayer
 62
  256
370
   -1
100
AcDbLine
 10
226.2812600000001
 20
39.19688799999999
 11
243.0148880000001
 21
32.45489399999999
  0
LINE
  5
D7
100
AcDbEntity
  8
Discard
  6
ByLayer
 62
  256
370
   -1
100
AcDbLine
 10
243.0148880000001
 20
32.45489399999999
 11
265.3542200000001
 21
29.05922199999998
  0
LINE
  5
D8
100
AcDbEntity
  8
Discard
  6
ByLayer
 62
  256
370
   -1
100
AcDbLine
 10
265.3542200000001
 20
29.05922199999998
 11
266.8501670000001
 21
28.65438399999998
  0
LINE
  5
D9
100
AcDbEntity
  8
Discard
  6
ByLayer
 62
  256
370
   -1
100
AcDbLine
 10
266.8501670000001
 20
28.65438399999998
 11
268.2325120000001
 21
27.02836899999998
  0
LINE
  5
DA
100
AcDbEntity
  8
Discard
  6
ByLayer
 62
  256
370
   -1
100
AcDbLine
 10
268.2325120000001
 20
27.02836899999998
 11
268.8962560000001
 21
3.483474999999983
  0
LINE
  5
DB
100
AcDbEntity
  8
Discard
  6
ByLayer
 62
  256
370
   -1
100
AcDbLine
 10
268.8962560000001
 20
3.483474999999983
 11
267.8555760000001
 21
0.4224049999999822
  0
LINE
  5
DC
100
AcDbEntity
  8
Discard
  6
ByLayer
 62
  256
370
   -1
100
AcDbLine
 10
267.8555760000001
 20
0.4224049999999822
 11
264.6850930000001
 21
-1.566573000000018
  0
LINE
  5
DD
100
AcDbEntity
  8
Discard
  6
ByLayer
 62
  256
370
   -1
100
AcDbLine
 10
264.6850930000001
 20
-1.566573000000018
 11
244.7818000000001
 21
-0.8307140000000163
  0
LINE
  5
DE
100
AcDbEntity
  8
Discard
  6
ByLayer
 62
  256
370
   -1
100
AcDbLine
 10
244.7818000000001
 20
-0.8307140000000163
 11
225.5180780000001
 21
7.560631999999984
  0
LINE
  5
DF
100
AcDbEntity
  8
Discard
  6
ByLayer
 62
  256
370
   -1
100
AcDbLine
 10
225.5180780000001
 20
7.560631999999984
 11
204.6864260000001
 21
14.64338899999998
  0
LINE
  5
E0
100
AcDbEntity
  8
Discard
  6
ByLayer
 62
  256
370
   -1
100
AcDbLine
 10
204.6864260000001
 20
14.64338899999998
 11
176.0647540000001
 21
20.62843099999998
  0
LINE
  5
E1
100
AcDbEntity
  8
Discard
  6
ByLayer
 62
  256
370
   -1
100
AcDbLine
 10
176.0647540000001
 20
20.62843099999998
 11
151.3367810000001
 21
22.66631499999999
  0
LINE
  5
E2
100
AcDbEntity
  8
Discard
  6
ByLayer
 62
  256
370
   -1
100
AcDbLine
 10
151.3367810000001
 20
22.66631499999999
 11
119.3724180000001
 21
23.01962899999999
  0
LINE
  5
E3
100
AcDbEntity
  8
Discard
  6
ByLayer
 62
  256
370
   -1
100
AcDbLine
 10
119.3724180000001
 20
23.01962899999999
 11
81.99480800000009
 21
19.76795
  0
LINE
  5
E4
100
AcDbEntity
  8
Discard
  6
ByLayer
 62
  256
370
   -1
100
AcDbLine
 10
81.99480800000009
 20
19.76795
 11
58.56048500000009
 21
13.895687
  0
LINE
  5
E5
100
AcDbEntity
  8
Discard
  6
ByLayer
 62
  256
370
   -1
100
AcDbLine
 10
58.56048500000009
 20
13.895687
 11
39.19970700000007
 21
7.586924999999996
  0
LINE
  5
E6
100
AcDbEntity
  8
Discard
  6
ByLayer
 62
  256
370
   -1
100
AcDbLine
 10
39.19970700000007
 20
7.586924999999996
 11
23.70819900000009
 21
-2.783976130495117e-15
  0
LINE
  5
E7
100
AcDbEntity
  8
Discard
  6
ByLayer
 62
  256
370
   -1
100
AcDbLine
 10
23.70819900000009
 20
-2.783976130495117e-15
 11
3.1003520000001
 21
0.1718979999999986
  0
LINE
  5
E8
100
AcDbEntity
  8
Discard
  6
ByLayer
 62
  256
370
   -1
100
AcDbLine
 10
3.1003520000001
 20
0.1718979999999986
 11
1.071280000000059
 21
1.838560999999999
  0
LINE
  5
E9
100
AcDbEntity
  8
Discard
  6
ByLayer
 62
  256
370
   -1
100
AcDbLine
 10
1.071280000000059
 20
1.838560999999999
 11
0.1242130000000546
 21
4.571652999999998
  0
LINE
  5
EA
100
AcDbEntity
  8
Discard
  6
ByLayer
 62
  256
370
   -1
100
AcDbLine
 10
0.1242130000000546
 20
4.571652999999998
 11
5.849313309359394e-14
 21
26.941878
  0
LINE
  5
EB
100
AcDbEntity
  8
Discard
  6
ByLayer
 62
  256
370
   -1
100
AcDbLine
 10
5.849313309359394e-14
 20
26.941878
 11
3.289899000000107
 21
30.19912
  0
LINE
  5
EC
100
AcDbEntity
  8
Discard
  6
ByLayer
 62
  256
370
   -1
100
AcDbLine
 10
3.289899000000107
 20
30.19912
 11
27.14402400000006
 21
33.327697
  0
LINE
  5
ED
100
AcDbEntity
  8
Discard
  6
ByLayer
 62
  256
370
   -1
100
AcDbLine
 10
27.14402400000006
 20
33.327697
 11
44.35328800000008
 21
40.025912
  0
LINE
  5
EE
100
AcDbEntity
  8
Discard
  6
ByLayer
 62
  256
370
   -1
100
AcDbLine
 10
44.35328800000008
 20
40.025912
 11
55.24200100000007
 21
53.111156
  0
LINE
  5
EF
100
AcDbEntity
  8
Discard
  6
ByLayer
 62
  256
370
   -1
100
AcDbLine
 10
55.24200100000007
 20
53.111156
 11
58.94481900000009
 21
61.58469599999999
  0
LINE
  5
F0
100
AcDbEntity
  8
Discard
  6
ByLayer
 62
  256
370
   -1
100
AcDbLine
 10
58.94481900000009
 20
61.58469599999999
 11
60.74372000000009
 21
72.63049599999999
  0
LINE
  5
F1
100
AcDbEntity
  8
Discard
  6
ByLayer
 62
  256
370
   -1
100
AcDbLine
 10
60.74372000000009
 20
72.63049599999999
 11
60.80198100000008
 21
99.340219
  0
LINE
  5
F2
100
AcDbEntity
  8
0
  6
ByLayer
 62
  256
370
   -1
100
AcDbLine
 10
60.80198100000008
 20
99.340219
 11
65.11643500000008
 21
107.468185
  0
LINE
  5
F3
100
AcDbEntity
  8
0
  6
ByLayer
 62
  256
370
   -1
100
AcDbLine
 10
65.11643500000008
 20
107.468185
 11
71.44068700000008
 21
113.210287
  0
LINE
  5
F4
100
AcDbEntity
  8
0
  6
ByLayer
 62
  256
370
   -1
100
AcDbLine
 10
71.44068700000008
 20
113.210287
 11
81.01077000000006
 21
113.703364
  0
LINE
  5
F5
100
AcDbEntity
  8
0
  6
ByLayer
 62
  256
370
   -1
100
AcDbLine
 10
81.01077000000006
 20
113.703364
 11
89.4018160000001
 21
116.809787
  0
LINE
  5
F6
100
AcDbEntity
  8
0
  6
ByLayer
 62
  256
370
   -1
100
AcDbLine
 10
89.4018160000001
 20
116.809787
 11
94.8012200000001
 21
118.736775
  0
LINE
  5
F7
100
AcDbEntity
  8
0
  6
ByLayer
 62
  256
370
   -1
100
AcDbLine
 10
94.8012200000001
 20
118.736775
 11
97.71311700000008
 21
124.087827
  0
LINE
  5
F8
100
AcDbEntity
  8
0
  6
ByLayer
 62
  256
370
   -1
100
AcDbLine
 10
97.71311700000008
 20
124.087827
 11
98.81259500000009
 21
201.971966
  0
LINE
  5
F9
100
AcDbEntity
  8
0
  6
ByLayer
 62
  256
370
   -1
100
AcDbLine
 10
98.81259500000009
 20
201.971966
 11
95.95649600000009
 21
210.128698
  0
LINE
  5
FA
100
AcDbEntity
  8
0
  6
ByLayer
 62
  256
370
   -1
100
AcDbLine
 10
95.95649600000009
 20
210.128698
 11
89.3572350000001
 21
216.923817
  0
LINE
  5
FB
100
AcDbEntity
  8
0
  6
ByLayer
 62
  256
370
   -1
100
AcDbLine
 10
89.3572350000001
 20
216.923817
 11
80.60005900000009
 21
224.436249
  0
LINE
  5
FC
100
AcDbEntity
  8
0
  6
ByLayer
 62
  256
370
   -1
100
AcDbLine
 10
80.60005900000009
 20
224.436249
 11
68.97739200000008
 21
228.655841
  0
LINE
  5
FD
100
AcDbEntity
  8
0
  6
ByLayer
 62
  256
370
   -1
100
AcDbLine
 10
68.97739200000008
 20
228.655841
 11
56.5800510000001
 21
232.049985
  0
LINE
  5
FE
100
AcDbEntity
  8
Discard
  6
ByLayer
 62
  256
370
   -1
100
AcDbLine
 10
67.66534900000008
 20
72.476198
 11
67.18521100000007
 21
95.67840099999999
  0
LINE
  5
FF
100
AcDbEntity
  8
Discard
  6
ByLayer
 62
  256
370
   -1
100
AcDbLine
 10
67.18521100000007
 20
95.67840099999999
 11
70.44768200000007
 21
98.74485
  0
LINE
  5
100
100
AcDbEntity
  8
Discard
  6
ByLayer
 62
  256
370
   -1
100
AcDbLine
 10
70.44768200000007
 20
98.74485
 11
197.7447560000001
 21
98.55862599999999
  0
LINE
  5
101
100
AcDbEntity
  8
Discard
  6
ByLayer
 62
  256
370
   -1
100
AcDbLine
 10
197.7447560000001
 20
98.55862599999999
 11
202.1071800000001
 21
95.41104099999998
  0
LINE
  5
102
100
AcDbEntity
  8
Discard
  6
ByLayer
 62
  256
370
   -1
100
AcDbLine
 10
202.1071800000001
 20
95.41104099999998
 11
202.0696050000001
 21
73.09951399999999
  0
LINE
  5
103
100
AcDbEntity
  8
Discard
  6
ByLayer
 62
  256
370
   -1
100
AcDbLine
 10
202.0696050000001
 20
73.09951399999999
 11
199.4813920000001
 21
69.05615599999999
  0
LINE
  5
104
100
AcDbEntity
  8
Discard
  6
ByLayer
 62
  256
370
   -1
100
AcDbLine
 10
199.4813920000001
 20
69.05615599999999
 11
69.91562900000008
 21
69.829188
  0
LINE
  5
105
100
AcDbEntity
  8
Discard
  6
ByLayer
 62
  256
370
   -1
100
AcDbLine
 10
69.91562900000008
 20
69.829188
 11
67.66534900000008
 21
72.476198
  0
LINE
  5
106
100
AcDbEntity
  8
0
  6
ByLayer
 62
  256
370
   -1
100
AcDbLine
 10
109.8988340000001
 20
221.446455
 11
118.8277330000001
 21
225.26829
  0
LINE
  5
107
100
AcDbEntity
  8
0
  6
ByLayer
 62
  256
370
   -1
100
AcDbLine
 10
118.8277330000001
 20
225.26829
 11
130.2600080000001
 21
226.237409
  0
LINE
  5
108
100
AcDbEntity
  8
0
  6
ByLayer
 62
  256
370
   -1
100
AcDbLine
 10
130.2600080000001
 20
226.237409
 11
146.2885890000001
 21
226.359632
  0
LINE
  5
109
100
AcDbEntity
  8
0
  6
ByLayer
 62
  256
370
   -1
100
AcDbLine
 10
146.2885890000001
 20
226.359632
 11
160.0424950000001
 21
223.362634
  0
LINE
  5
10A
100
AcDbEntity
  8
0
  6
ByLayer
 62
  256
370
   -1
100
AcDbLine
 10
160.0424950000001
 20
223.362634
 11
161.6295390000001
 21
217.833761
  0
LINE
  5
10B
100
AcDbEntity
  8
0
  6
ByLayer
 62
  256
370
   -1
100
AcDbLine
 10
161.6295390000001
 20
217.833761
 11
159.9494180000001
 21
132.489894
  0
LINE
  5
10C
100
AcDbEntity
  8
0
  6
ByLayer
 62
  256
370
   -1
100
AcDbLine
 10
159.9494180000001
 20
132.489894
 11
157.2522990000001
 21
129.327175
  0
LINE
  5
10D
100
AcDbEntity
  8
0
  6
ByLayer
 62
  256
370
   -1
100
AcDbLine
 10
157.2522990000001
 20
129.327175
 11
111.2406910000001
 21
129.667366
  0
LINE
  5
10E
100
AcDbEntity
  8
0
  6
ByLayer
 62
  256
370
   -1
100
AcDbLine
 10
111.2406910000001
 20
129.667366
 11
109.0974680000001
 21
134.326875
  0
LINE
  5
10F
100
AcDbEntity
  8
0
  6
ByLayer
 62
  256
370
   -1
100
AcDbLine
 10
109.0974680000001
 20
134.326875
 11
109.8988340000001
 21
221.446455
  0
LINE
  5
110
100
AcDbEntity
  8
Guides
  6
ByLayer
 62
  256
370
   -1
100
AcDbLine
 10
260.064058
 20
268.224993
 11
125.0640580000001
 21
268.224993
  0
LINE
  5
111
100
AcDbEntity
  8
Guides
  6
ByLayer
 62
  256
370
   -1
100
AcDbLine
 10
269.4180820000001
 20
265.448976
 11
269.4180820000001
 21
400.448976
  0
LINE
  5
112
100
AcDbEntity
  8
Guides
  6
ByLayer
 62
  256
370
   -1
100
AcDbLine
 10
0
 20
0
 11
-135
 21
1.653273178848927e-14
  0
LINE
  5
113
100
AcDbEntity
  8
Guides
  6
ByLayer
 62
  256
370
   -1
100
AcDbLine
 10
1.495914012863548e-30
 20
-1.831966307653017e-46
 11
269.4180820000001
 21
268.224993
  0
LINE
  5
114
100
AcDbEntity
  8
Guides
  6
ByLayer
 62
  256
370
   -1
100
AcDbLine
 10
1.642404395643856e-14
 20
268.224993
 11
269.4180820000001
 21
-3.299419917537192e-14
  0
LINE
  5
115
100
AcDbEntity
  8
Guides
  6
ByLayer
 62
  256
370
   -1
100
AcDbLine
 10
134.709041
 20
134.1124965
 11
269.709041
 21
134.1124965
  0
LINE
  5
116
100
AcDbEntity
  8
Guides
  6
ByLayer
 62
  256
370
   -1
100
AcDbLine
 10
134.709041
 20
134.1124965
 11
134.709041
 21
269.1124965
  0
LINE
  5
117
100
AcDbEntity
  8
Guides
  6
ByLayer
 62
  256
370
   -1
100
AcDbLine
 10
67.209041
 20
66.91141299031931
 11
202.209041
 21
66.91141299031931
  0
LINE
  5
118
100
AcDbEntity
  8
Guides
  6
ByLayer
 62
  256
370
   -1
100
AcDbLine
 10
67.209041
 20
111.9114129903193
 11
202.209041
 21
111.9114129903193
  0
ARC
  5
119
100
AcDbEntity
  8
InnerCuts
  6
ByLayer
 62
  256
370
   -1
100
AcDbCircle
 10
70.20904100000001
 20
69.91141299031931
 40
3
100
AcDbArc
 50
180
 51
270
  0
LINE
  5
11A
100
AcDbEntity
  8
InnerCuts
  6
ByLayer
 62
  256
370
   -1
100
AcDbLine
 10
67.20904100000001
 20
69.91141299031931
 11
67.20904100000001
 21
108.9114129903193
  0
ARC
  5
11B
100
AcDbEntity
  8
InnerCuts
  6
ByLayer
 62
  256
370
   -1
100
AcDbCircle
 10
70.20904100000001
 20
108.9114129903193
 40
3
100
AcDbArc
 50
90
 51
180
  0
ARC
  5
11C
100
AcDbEntity
  8
InnerCuts
  6
ByLayer
 62
  256
370
   -1
100
AcDbCircle
 10
199.209041
 20
108.9114129903193
 40
3
100
AcDbArc
 50
0
 51
90
  0
LINE
  5
11D
100
AcDbEntity
  8
InnerCuts
  6
ByLayer
 62
  256
370
   -1
100
AcDbLine
 10
202.209041
 20
108.9114129903193
 11
202.209041
 21
69.91141299031931
  0
LINE
  5
11E
100
AcDbEntity
  8
InnerCuts
  6
ByLayer
 62
  256
370
   -1
100
AcDbLine
 10
199.209041
 20
66.91141299031931
 11
70.20904100000001
 21
66.91141299031931
  0
ARC
  5
11F
100
AcDbEntity
  8
InnerCuts
  6
ByLayer
 62
  256
370
   -1
100
AcDbCircle
 10
199.209041
 20
69.91141299031931
 40
3
100
AcDbArc
 50
270
 51
0
  0
LINE
  5
120
100
AcDbEntity
  8
Guides
  6
ByLayer
 62
  256
370
   -1
100
AcDbLine
 10
6.123233995736766e-16
 20
2
 11
-135
 21
2.000000000000016
  0
LINE
  5
121
100
AcDbEntity
  8
OuterCuts
  6
ByLayer
 62
  256
370
   -1
100
AcDbLine
 10
244.709041
 20
-2.996821437830684e-14
 11
244.709041
 21
1.99999999999997
  0
LINE
  5
122
100
AcDbEntity
  8
OuterCuts
  6
ByLayer
 62
  256
370
   -1
100
AcDbLine
 10
24.70904100000001
 20
-3.025984797065073e-15
 11
24.70904100000001
 21
1.999999999999997
  0
LINE
  5
123
100
AcDbEntity
  8
Guides
  6
ByLayer
 62
  256
370
   -1
100
AcDbLine
 10
134.709041
 20
22.8501075983496
 11
269.709041
 21
22.8501075983496
  0
ARC
  5
124
100
AcDbEntity
  8
OuterCuts
  6
ByLayer
 62
  256
370
   -1
100
AcDbCircle
 10
134.709041
 20
-277.7413144779312
 40
300.5914220762808
100
AcDbArc
 50
68.53423405282194
 51
111.4657659471781
  0
LINE
  5
125
100
AcDbEntity
  8
OuterCuts
  6
ByLayer
 62
  256
370
   -1
100
AcDbLine
 10
244.709041
 20
-2.996821437830684e-14
 11
269.4180820000001
 21
-5.365730976610563e-14
  0
LINE
  5
126
100
AcDbEntity
  8
OuterCuts
  6
ByLayer
 62
  256
370
   -1
100
AcDbLine
 10
24.70904100000001
 20
-3.025984797065073e-15
 11
1.495914012863548e-30
 21
-1.831966307653017e-46
  0
LINE
  5
127
100
AcDbEntity
  8
Guides
  6
ByLayer
 62
  256
370
   -1
100
AcDbLine
 10
9.184850993605149e-15
 20
30
 11
-135
 21
30.00000000000002
  0
LINE
  5
128
100
AcDbEntity
  8
Guides
  6
ByLayer
 62
  256
370
   -1
100
AcDbLine
 10
227.209041
 20
108.9114129903193
 11
227.209041
 21
69.91141299031931
  0
LINE
  5
129
100
AcDbEntity
  8
Guides
  6
ByLayer
 62
  256
370
   -1
100
AcDbLine
 10
42.20904100000001
 20
69.91141299031931
 11
42.20904100000001
 21
108.9114129903193
  0
LINE
  5
12A
100
AcDbEntity
  8
Guides
  6
ByLayer
 62
  256
370
   -1
100
AcDbLine
 10
1.649714232785922e-15
 20
26.94187799999996
 11
1.653273178848927e-15
 21
27
  0
LINE
  5
12B
100
AcDbEntity
  8
Guides
  6
ByLayer
 62
  256
370
   -1
100
AcDbLine
 10
189.709041
 20
12.42505379917479
 11
189.709041
 21
147.4250537991748
  0
ARC
  5
12C
100
AcDbEntity
  8
OuterCuts
  6
ByLayer
 62
  256
370
   -1
100
AcDbCircle
 10
248.209041
 20
55.06368501285269
 40
21
100
AcDbArc
 50
180
 51
259.9999999999999
  0
LINE
  5
12D
100
AcDbEntity
  8
OuterCuts
  6
ByLayer
 62
  256
370
   -1
100
AcDbLine
 10
266.9390265330009
 20
30.43712436550475
 11
244.5624292689944
 21
34.38272219959631
  0
LINE
  5
12E
100
AcDbEntity
  8
OuterCuts
  6
ByLayer
 62
  256
370
   -1
100
AcDbLine
 10
269.4180820000001
 20
27.48270110646813
 11
269.4180820000001
 21
-3.299419917537192e-14
  0
ARC
  5
12F
100
AcDbEntity
  8
OuterCuts
  6
ByLayer
 62
  256
370
   -1
100
AcDbCircle
 10
266.4180820000001
 20
27.48270110646813
 40
3
100
AcDbArc
 50
0
 51
80.00000000000036
  0
LINE
  5
130
100
AcDbEntity
  8
OuterCuts
  6
ByLayer
 62
  256
370
   -1
100
AcDbLine
 10
1.495914012863548e-30
 20
-1.831966307653017e-46
 11
1.682830097097984e-15
 21
27.48270110646816
  0
ARC
  5
131
100
AcDbEntity
  8
OuterCuts
  6
ByLayer
 62
  256
370
   -1
100
AcDbCircle
 10
3.000000000000002
 20
27.48270110646816
 40
3
100
AcDbArc
 50
100
 51
180
  0
LINE
  5
132
100
AcDbEntity
  8
OuterCuts
  6
ByLayer
 62
  256
370
   -1
100
AcDbLine
 10
2.479055466999211
 20
30.43712436550478
 11
24.85565273100555
 21
34.38272219959632
  0
ARC
  5
133
100
AcDbEntity
  8
OuterCuts
  6
ByLayer
 62
  256
370
   -1
100
AcDbCircle
 10
21.20904100000001
 20
55.06368501285269
 40
21
100
AcDbArc
 50
280
 51
0
  0
LINE
  5
134
100
AcDbEntity
  8
TopHookGuides
  6
ByLayer
 62
  256
370
   -1
100
AcDbLine
 10
0
 20
-300
 11
135
 21
-300
  0
LINE
  5
135
100
AcDbEntity
  8
TopHookGuides
  6
ByLayer
 62
  256
370
   -1
100
AcDbLine
 10
0
 20
-300
 11
8.266365894244634e-15
 21
-165
  0
LINE
  5
136
100
AcDbEntity
  8
TopHookGuides
  6
ByLayer
 62
  256
370
   -1
100
AcDbLine
 10
95
 20
-300
 11
95.00000000000001
 21
-165
  0
LINE
  5
137
100
AcDbEntity
  8
TopHookGuides
  6
ByLayer
 62
  256
370
   -1
100
AcDbLine
 10
-1.5
 20
-300
 11
-1.499999999999992
 21
-165
  0
LINE
  5
138
100
AcDbEntity
  8
TopHookGuides
  6
ByLayer
 62
  256
370
   -1
100
AcDbLine
 10
96.5
 20
-300
 11
96.50000000000001
 21
-165
  0
LINE
  5
139
100
AcDbEntity
  8
TopHookGuides
  6
ByLayer
 62
  256
370
   -1
100
AcDbLine
 10
5
 20
-300
 11
5.000000000000008
 21
-165
  0
LINE
  5
13A
100
AcDbEntity
  8
TopHookGuides
  6
ByLayer
 62
  256
370
   -1
100
AcDbLine
 10
90
 20
-300
 11
90.00000000000001
 21
-165
  0
LINE
  5
13B
100
AcDbEntity
  8
TopHookGuides
  6
ByLayer
 62
  256
370
   -1
100
AcDbLine
 10
88.5
 20
-300
 11
88.50000000000001
 21
-165
  0
LINE
  5
13C
100
AcDbEntity
  8
TopHookGuides
  6
ByLayer
 62
  256
370
   -1
100
AcDbLine
 10
6.5
 20
-300
 11
6.500000000000008
 21
-165
  0
LINE
  5
13D
100
AcDbEntity
  8
TopHookGuides
  6
ByLayer
 62
  256
370
   -1
100
AcDbLine
 10
-1.469576158976824e-15
 20
-308
 11
135
 21
-308
  0
LINE
  5
13E
100
AcDbEntity
  8
TopHookGuides
  6
ByLayer
 62
  256
370
   -1
100
AcDbLine
 10
-3.306546357697853e-15
 20
-318
 11
135
 21
-318
  0
ARC
  5
13F
100
AcDbEntity
  8
TopHook
  6
ByLayer
 62
  256
370
   -1
100
AcDbCircle
 10
93.5
 20
-303
 40
3
100
AcDbArc
 50
0
 51
90
  0
LINE
  5
140
100
AcDbEntity
  8
TopHook
  6
ByLayer
 62
  256
370
   -1
100
AcDbLine
 10
96.5
 20
-315
 11
96.5
 21
-303
  0
ARC
  5
141
100
AcDbEntity
  8
TopHook
  6
ByLayer
 62
  256
370
   -1
100
AcDbCircle
 10
93.5
 20
-315
 40
3
100
AcDbArc
 50
270
 51
0
  0
LINE
  5
142
100
AcDbEntity
  8
TopHook
  6
ByLayer
 62
  256
370
   -1
100
AcDbLine
 10
91.5
 20
-318
 11
93.5
 21
-318
  0
ARC
  5
143
100
AcDbEntity
  8
TopHook
  6
ByLayer
 62
  256
370
   -1
100
AcDbCircle
 10
91.5
 20
-315
 40
3
100
AcDbArc
 50
180
 51
270
  0
LINE
  5
144
100
AcDbEntity
  8
TopHook
  6
ByLayer
 62
  256
370
   -1
100
AcDbLine
 10
88.5
 20
-311
 11
88.5
 21
-315
  0
ARC
  5
145
100
AcDbEntity
  8
TopHook
  6
ByLayer
 62
  256
370
   -1
100
AcDbCircle
 10
85.5
 20
-311
 40
3
100
AcDbArc
 50
0
 51
90
  0
LINE
  5
146
100
AcDbEntity
  8
TopHook
  6
ByLayer
 62
  256
370
   -1
100
AcDbLine
 10
9.5
 20
-308
 11
85.5
 21
-308
  0
ARC
  5
147
100
AcDbEntity
  8
TopHook
  6
ByLayer
 62
  256
370
   -1
100
AcDbCircle
 10
9.5
 20
-311
 40
3
100
AcDbArc
 50
90
 51
180
  0
LINE
  5
148
100
AcDbEntity
  8
TopHook
  6
ByLayer
 62
  256
370
   -1
100
AcDbLine
 10
6.499999999999999
 20
-315
 11
6.499999999999999
 21
-311
  0
ARC
  5
149
100
AcDbEntity
  8
TopHook
  6
ByLayer
 62
  256
370
   -1
100
AcDbCircle
 10
3.499999999999999
 20
-315
 40
3
100
AcDbArc
 50
270
 51
0
  0
LINE
  5
14A
100
AcDbEntity
  8
TopHook
  6
ByLayer
 62
  256
370
   -1
100
AcDbLine
 10
1.499999999999999
 20
-318
 11
3.499999999999999
 21
-318
  0
ARC
  5
14B
100
AcDbEntity
  8
TopHook
  6
ByLayer
 62
  256
370
   -1
100
AcDbCircle
 10
1.499999999999999
 20
-315
 40
3
100
AcDbArc
 50
180
 51
270
  0
LINE
  5
14C
100
AcDbEntity
  8
TopHook
  6
ByLayer
 62
  256
370
   -1
100
AcDbLine
 10
-1.5
 20
-303
 11
-1.500000000000001
 21
-315
  0
LINE
  5
14D
100
AcDbEntity
  8
TopHook
  6
ByLayer
 62
  256
370
   -1
100
AcDbLine
 10
93.5
 20
-300
 11
1.5
 21
-300
  0
ARC
  5
14E
100
AcDbEntity
  8
TopHook
  6
ByLayer
 62
  256
370
   -1
100
AcDbCircle
 10
1.5
 20
-303
 40
3
100
AcDbArc
 50
90
 51
180
  0
LINE
  5
14F
100
AcDbEntity
  8
Guides
  6
ByLayer
 62
  256
370
   -1
100
AcDbLine
 10
85.37845700000011
 20
236.745236
 11
220.3784570000001
 21
236.745236
  0
LINE
  5
150
100
AcDbEntity
  8
TopHookGuides
  6
ByLayer
 62
  256
370
   -1
100
AcDbLine
 10
47.50000000000023
 20
-309
 11
47.50000000000023
 21
-174
  0
ARC
  5
151
100
AcDbEntity
  8
TopHook
  6
ByLayer
 62
  256
370
   -1
100
AcDbCircle
 10
180.7090409999998
 20
233.745236
 40
3
100
AcDbArc
 50
0
 51
90
  0
LINE
  5
152
100
AcDbEntity
  8
TopHook
  6
ByLayer
 62
  256
370
   -1
100
AcDbLine
 10
183.7090409999998
 20
221.745236
 11
183.7090409999998
 21
233.745236
  0
ARC
  5
153
100
AcDbEntity
  8
TopHook
  6
ByLayer
 62
  256
370
   -1
100
AcDbCircle
 10
180.7090409999998
 20
221.745236
 40
3
100
AcDbArc
 50
270
 51
0
  0
LINE
  5
154
100
AcDbEntity
  8
TopHook
  6
ByLayer
 62
  256
370
   -1
100
AcDbLine
 10
178.7090409999998
 20
218.745236
 11
180.7090409999998
 21
218.745236
  0
ARC
  5
155
100
AcDbEntity
  8
TopHook
  6
ByLayer
 62
  256
370
   -1
100
AcDbCircle
 10
178.7090409999998
 20
221.745236
 40
3
100
AcDbArc
 50
180
 51
270
  0
LINE
  5
156
100
AcDbEntity
  8
TopHook
  6
ByLayer
 62
  256
370
   -1
100
AcDbLine
 10
175.7090409999998
 20
225.745236
 11
175.7090409999998
 21
221.745236
  0
ARC
  5
157
100
AcDbEntity
  8
TopHook
  6
ByLayer
 62
  256
370
   -1
100
AcDbCircle
 10
172.7090409999998
 20
225.745236
 40
3
100
AcDbArc
 50
0
 51
90
  0
LINE
  5
158
100
AcDbEntity
  8
TopHook
  6
ByLayer
 62
  256
370
   -1
100
AcDbLine
 10
96.70904099999979
 20
228.745236
 11
172.7090409999998
 21
228.745236
  0
ARC
  5
159
100
AcDbEntity
  8
TopHook
  6
ByLayer
 62
  256
370
   -1
100
AcDbCircle
 10
96.70904099999979
 20
225.745236
 40
3
100
AcDbArc
 50
90
 51
180
  0
LINE
  5
15A
100
AcDbEntity
  8
TopHook
  6
ByLayer
 62
  256
370
   -1
100
AcDbLine
 10
93.70904099999979
 20
221.745236
 11
93.70904099999979
 21
225.745236
  0
ARC
  5
15B
100
AcDbEntity
  8
TopHook
  6
ByLayer
 62
  256
370
   -1
100
AcDbCircle
 10
90.70904099999979
 20
221.745236
 40
3
100
AcDbArc
 50
270
 51
0
  0
LINE
  5
15C
100
AcDbEntity
  8
TopHook
  6
ByLayer
 62
  256
370
   -1
100
AcDbLine
 10
88.70904099999979
 20
218.745236
 11
90.70904099999979
 21
218.745236
  0
ARC
  5
15D
100
AcDbEntity
  8
TopHook
  6
ByLayer
 62
  256
370
   -1
100
AcDbCircle
 10
88.70904099999979
 20
221.745236
 40
3
100
AcDbArc
 50
180
 51
270
  0
LINE
  5
15E
100
AcDbEntity
  8
TopHook
  6
ByLayer
 62
  256
370
   -1
100
AcDbLine
 10
85.70904099999979
 20
233.745236
 11
85.70904099999979
 21
221.745236
  0
LINE
  5
15F
100
AcDbEntity
  8
TopHook
  6
ByLayer
 62
  256
370
   -1
100
AcDbLine
 10
180.7090409999998
 20
236.745236
 11
88.70904099999979
 21
236.745236
  0
ARC
  5
160
100
AcDbEntity
  8
TopHook
  6
ByLayer
 62
  256
370
   -1
100
AcDbCircle
 10
88.70904099999979
 20
233.745236
 40
3
100
AcDbArc
 50
90
 51
180
  0
LINE
  5
161
100
AcDbEntity
  8
Guides
  6
ByLayer
 62
  256
370
   -1
100
AcDbLine
 10
89.38638219087817
 20
218.745236
 11
224.3863821908782
 21
218.745236
  0
LINE
  5
162
100
AcDbEntity
  8
Guides
  6
ByLayer
 62
  256
370
   -1
100
AcDbLine
 10
89.38638219087817
 20
198.745236
 11
224.3863821908782
 21
198.745236
  0
LINE
  5
163
100
AcDbEntity
  8
Guides
  6
ByLayer
 62
  256
370
   -1
100
AcDbLine
 10
102.209041
 20
134.1124965
 11
102.209041
 21
269.1124965
  0
LINE
  5
164
100
AcDbEntity
  8
Guides
  6
ByLayer
 62
  256
370
   -1
100
AcDbLine
 10
167.209041
 20
134.1124965
 11
167.209041
 21
269.1124965
  0
LINE
  5
165
100
AcDbEntity
  8
InnerCuts
  6
ByLayer
 62
  256
370
   -1
100
AcDbLine
 10
70.20904100000001
 20
111.9114129903193
 11
99.20904100000001
 21
111.9114129903193
  0
ARC
  5
166
100
AcDbEntity
  8
InnerCuts
  6
ByLayer
 62
  256
370
   -1
100
AcDbCircle
 10
99.20904100000001
 20
114.9114129903193
 40
3
100
AcDbArc
 50
270
 51
0
  0
LINE
  5
167
100
AcDbEntity
  8
InnerCuts
  6
ByLayer
 62
  256
370
   -1
100
AcDbLine
 10
170.209041
 20
111.9114129903193
 11
199.209041
 21
111.9114129903193
  0
ARC
  5
168
100
AcDbEntity
  8
InnerCuts
  6
ByLayer
 62
  256
370
   -1
100
AcDbCircle
 10
170.209041
 20
114.9114129903193
 40
3
100
AcDbArc
 50
180
 51
270
  0
LINE
  5
169
100
AcDbEntity
  8
InnerCuts
  6
ByLayer
 62
  256
370
   -1
100
AcDbLine
 10
167.209041
 20
195.745236
 11
167.209041
 21
114.9114129903193
  0
ARC
  5
16A
100
AcDbEntity
  8
InnerCuts
  6
ByLayer
 62
  256
370
   -1
100
AcDbCircle
 10
164.209041
 20
195.745236
 40
3
100
AcDbArc
 50
0
 51
90
  0
LINE
  5
16B
100
AcDbEntity
  8
InnerCuts
  6
ByLayer
 62
  256
370
   -1
100
AcDbLine
 10
105.209041
 20
198.745236
 11
164.209041
 21
198.745236
  0
LINE
  5
16C
100
AcDbEntity
  8
InnerCuts
  6
ByLayer
 62
  256
370
   -1
100
AcDbLine
 10
102.209041
 20
114.9114129903193
 11
102.209041
 21
195.745236
  0
ARC
  5
16D
100
AcDbEntity
  8
InnerCuts
  6
ByLayer
 62
  256
370
   -1
100
AcDbCircle
 10
105.209041
 20
195.745236
 40
3
100
AcDbArc
 50
90
 51
180
  0
CIRCLE
  5
16E
100
AcDbEntity
  8
Guides
  6
ByLayer
 62
  256
370
   -1
100
AcDbCircle
 10
269.4180820000001
 20
227.745236
 40
9
  0
LINE
  5
16F
100
AcDbEntity
  8
Guides
  6
ByLayer
 62
  256
370
   -1
100
AcDbLine
 10
269.4180820000001
 20
227.745236
 11
404.4180820000001
 21
227.745236
  0
LINE
  5
170
100
AcDbEntity
  8
Guides
  6
ByLayer
 62
  256
370
   -1
100
AcDbLine
 10
269.4180820000001
 20
227.745236
 11
402.3671286566482
 21
251.1877399850356
  0
LINE
  5
171
100
AcDbEntity
  8
Guides
  6
ByLayer
 62
  256
370
   -1
100
AcDbLine
 10
1.394537371442316e-14
 20
227.745236
 11
132.9490466566481
 21
204.3027320149644
  0
ARC
  5
172
100
AcDbEntity
  8
OuterCuts
  6
ByLayer
 62
  256
370
   -1
100
AcDbCircle
 10
266.4180820000003
 20
230.2625348935318
 40
3
100
AcDbArc
 50
279.9999999999996
 51
0
  0
ARC
  5
173
100
AcDbEntity
  8
OuterCuts
  6
ByLayer
 62
  256
370
   -1
100
AcDbCircle
 10
2.999999999999787
 20
230.2625348935318
 40
3
100
AcDbArc
 50
180
 51
260
  0
LINE
  5
174
100
AcDbEntity
  8
OuterCuts
  6
ByLayer
 62
  256
370
   -1
100
AcDbLine
 10
2.479055466999005
 20
227.3081116344952
 11
24.85565273100553
 21
223.3625138004036
  0
LINE
  5
175
100
AcDbEntity
  8
OuterCuts
  6
ByLayer
 62
  256
370
   -1
100
AcDbLine
 10
42.20904100000001
 20
55.06368501285269
 11
42.20904100000001
 21
202.6815509871473
  0
ARC
  5
176
100
AcDbEntity
  8
OuterCuts
  6
ByLayer
 62
  256
370
   -1
100
AcDbCircle
 10
21.20904100000001
 20
202.6815509871473
 40
21
100
AcDbArc
 50
0
 51
80.00000000000004
  0
LINE
  5
177
100
AcDbEntity
  8
OuterCuts
  6
ByLayer
 62
  256
370
   -1
100
AcDbLine
 10
244.5624292689945
 20
223.3625138004036
 11
266.939026533001
 21
227.3081116344952
  0
LINE
  5
178
100
AcDbEntity
  8
OuterCuts
  6
ByLayer
 62
  256
370
   -1
100
AcDbLine
 10
227.209041
 20
55.06368501285269
 11
227.209041
 21
202.6815509871472
  0
ARC
  5
179
100
AcDbEntity
  8
OuterCuts
  6
ByLayer
 62
  256
370
   -1
100
AcDbCircle
 10
248.209041
 20
202.6815509871472
 40
21
100
AcDbArc
 50
99.99999999999994
 51
180
  0
LINE
  5
17A
100
AcDbEntity
  8
Guides
  6
ByLayer
 62
  256
370
   -1
100
AcDbLine
 10
269.4180820000001
 20
257.745236
 11
404.4180820000001
 21
257.745236
  0
LINE
  5
17B
100
AcDbEntity
  8
OuterCuts
  6
ByLayer
 62
  256
370
   -1
100
AcDbLine
 10
269.4180820000003
 20
230.2625348935318
 11
269.4180820000001
 21
254.745236
  0
ARC
  5
17C
100
AcDbEntity
  8
OuterCuts
  6
ByLayer
 62
  256
370
   -1
100
AcDbCircle
 10
266.4180820000001
 20
254.745236
 40
3
100
AcDbArc
 50
5.343331864858708e-13
 51
90
  0
LINE
  5
17D
100
AcDbEntity
  8
OuterCuts
  6
ByLayer
 62
  256
370
   -1
100
AcDbLine
 10
266.4180820000001
 20
257.745236
 11
2.999999999999943
 21
257.745236
  0
LINE
  5
17E
100
AcDbEntity
  8
OuterCuts
  6
ByLayer
 62
  256
370
   -1
100
AcDbLine
 10
-7.571542223367671e-14
 20
254.745236
 11
-2.132340771839957e-13
 21
230.2625348935318
  0
ARC
  5
17F
100
AcDbEntity
  8
OuterCuts
  6
ByLayer
 62
  256
370
   -1
100
AcDbCircle
 10
2.999999999999925
 20
254.745236
 40
3
100
AcDbArc
 50
89.99999999999964
 51
180
  0
ENDSEC
  0
SECTION
  2
OBJECTS
  0
DICTIONARY
  5
C
330
0
100
AcDbDictionary
281
    1
  3
ACAD_GROUP
350
D
  0
DICTIONARY
  5
D
330
C
100
AcDbDictionary
281
    1
  0
ENDSEC
  0
EOF
